<?xml version="1.0" standalone="no"?>
<!DOCTYPE svg PUBLIC "-//W3C//DTD SVG 20010904//EN"
 "http://www.w3.org/TR/2001/REC-SVG-20010904/DTD/svg10.dtd">
<svg version="1.0" xmlns="http://www.w3.org/2000/svg"
 width="576.000000pt" height="576.000000pt" viewBox="0 0 576.000000 576.000000"
 preserveAspectRatio="xMidYMid meet">
<metadata>
Created by potrace 1.14, written by Peter Selinger 2001-2017
</metadata>
<g transform="translate(0.000000,576.000000) scale(0.100000,-0.100000)"
fill="#000000" stroke="none">
<path d="M0 2921 c0 -1526 2 -2772 4 -2770 2 2 25 44 51 94 91 172 184 342
229 419 25 43 46 79 46 82 0 2 43 72 96 156 53 84 101 162 108 173 6 11 13 22
16 25 5 5 157 228 175 257 6 9 15 24 22 32 7 9 54 75 105 146 50 72 97 135
103 141 5 7 19 24 30 39 11 16 47 63 80 105 33 42 71 92 85 110 14 18 30 38
35 44 6 6 26 31 46 56 20 25 46 56 58 70 12 14 41 47 64 74 81 96 201 231 243
276 23 25 52 56 64 70 94 110 599 599 719 696 13 10 29 24 35 31 7 6 48 41 92
78 43 36 90 76 104 89 63 55 193 156 410 318 299 222 331 245 575 403 137 89
497 300 690 405 73 40 492 250 498 250 3 0 48 20 100 45 52 24 117 53 143 64
27 10 72 29 99 42 28 12 52 23 55 24 3 0 75 28 160 62 85 33 164 64 175 68 11
5 23 8 27 7 20 -4 24 55 24 313 l-1 280 -2782 0 -2783 0 0 -2774z m2836 2213
c27 -31 50 -60 52 -64 3 -9 -33 -20 -64 -20 -12 0 -56 -12 -99 -26 -42 -14
-79 -24 -81 -21 -3 3 51 88 108 170 19 27 31 21 84 -39z m19 -158 c28 -4 112
-35 178 -66 41 -20 33 -32 -15 -24 -52 9 -249 10 -298 2 -41 -7 -124 -35 -162
-54 -22 -11 -28 -12 -28 -2 0 20 31 63 70 97 61 54 125 66 255 47z m15 -152
c30 -3 55 -5 55 -4 0 3 211 -73 260 -95 90 -39 74 -42 -105 -17 -25 3 -117 6
-205 6 -152 -1 -173 -3 -305 -38 -8 -2 -52 -18 -97 -35 -45 -17 -85 -26 -87
-22 -12 20 122 165 150 163 5 0 17 7 28 16 10 9 19 15 20 13 0 -2 19 2 41 7
72 19 128 20 245 6z m25 -198 c43 -5 99 -15 192 -32 46 -9 250 -76 305 -101
66 -29 76 -48 21 -39 -40 7 -102 13 -218 22 -74 6 -79 6 -110 4 -11 0 -42 -1
-70 -1 -136 0 -329 -13 -366 -25 -10 -2 -30 -6 -46 -8 -17 -2 -52 -12 -79 -21
-27 -9 -59 -19 -72 -21 -20 -4 -94 -30 -147 -53 -84 -36 -95 -38 -95 -17 0 37
76 139 143 193 23 18 112 63 133 67 11 2 39 9 63 16 92 25 224 31 346 16z m41
-231 c76 -3 148 -7 159 -9 11 -2 50 -7 87 -10 67 -7 100 -12 148 -21 14 -3 36
-7 50 -10 108 -19 220 -50 217 -59 -2 -6 -12 -11 -23 -12 -32 -2 -217 -15
-262 -19 -24 -2 -59 -7 -78 -10 -20 -3 -56 -8 -82 -11 -26 -3 -58 -7 -72 -9
-14 -2 -63 -9 -110 -15 -158 -21 -194 -27 -280 -45 -14 -3 -34 -7 -45 -9 -18
-4 -144 -34 -170 -40 -5 -2 -17 -6 -25 -9 -11 -4 -156 -50 -230 -72 -3 -1 -18
-7 -33 -13 -16 -7 -30 -12 -32 -12 -3 0 -28 -11 -57 -24 -115 -52 -126 -42
-61 58 56 87 150 178 228 221 58 33 238 98 299 109 62 11 113 18 159 20 26 2
50 6 54 9 3 4 9 4 13 2 4 -2 69 -7 146 -10z m-76 -341 c56 -9 74 -32 124 -156
l15 -38 -94 -69 c-86 -64 -118 -89 -149 -116 -11 -10 -100 -80 -122 -97 -9 -6
-11 2 -8 29 7 77 14 139 19 173 2 19 7 62 10 95 8 102 16 149 28 174 11 22 15
23 77 17 36 -3 81 -8 100 -12z"/>
<path d="M5420 4839 c-69 -27 -139 -56 -157 -64 -17 -8 -35 -15 -40 -15 -5 0
-27 -8 -49 -19 -21 -10 -109 -49 -194 -87 -172 -76 -484 -227 -595 -288 -169
-93 -265 -147 -295 -166 -8 -6 -44 -28 -80 -49 -205 -124 -285 -175 -288 -183
-2 -4 -8 -8 -13 -8 -27 0 -701 -479 -786 -559 -12 -12 -26 -21 -32 -21 -5 0
-11 -3 -13 -7 -1 -5 -34 -33 -73 -64 -70 -57 -98 -80 -145 -122 -14 -12 -52
-45 -85 -72 -32 -28 -66 -57 -75 -65 -9 -8 -56 -51 -105 -95 -122 -109 -560
-547 -670 -669 -50 -55 -97 -107 -105 -116 -8 -9 -40 -45 -70 -81 -30 -35 -57
-66 -60 -69 -3 -3 -28 -32 -56 -65 -27 -33 -57 -69 -66 -80 -39 -46 -85 -103
-108 -134 -14 -18 -29 -38 -35 -44 -45 -53 -85 -107 -85 -116 0 -6 -3 -11 -7
-11 -5 0 -19 -17 -33 -37 -14 -20 -29 -42 -35 -48 -5 -6 -14 -18 -20 -27 -12
-19 -170 -248 -183 -263 -40 -50 -362 -569 -362 -584 0 -5 -3 -11 -8 -13 -9
-4 -92 -147 -92 -159 0 -5 -5 -9 -12 -9 -6 0 -8 -3 -5 -7 4 -3 2 -12 -4 -19
-6 -7 -19 -28 -28 -46 -10 -18 -41 -77 -70 -131 l-53 -97 2669 2 2668 3 0
2378 c1 1648 -2 2377 -10 2377 -5 -1 -66 -23 -135 -51z"/>
</g>
</svg>
