<?xml version="1.0" standalone="no"?>
<!DOCTYPE svg PUBLIC "-//W3C//DTD SVG 1.1//EN" "http://www.w3.org/Graphics/SVG/1.1/DTD/svg11.dtd" >
<svg xmlns="http://www.w3.org/2000/svg" xmlns:xlink="http://www.w3.org/1999/xlink" version="1.1">
<metadata>
Created by FontForge 20170924 at Wed Jun  5 15:42:39 2002
 By www-data
 Copyright 1987, 1991, 1993, 2002 Fundicion Tipografica Neufville S. A.
 This record material and the data recorded thereon is the property of
 Fundicion Tipografica Neufville S. A. and Adobe Systems Incorporated,
 or its licensors, and may not be reproduced, used, displayed, modified,
 disclosed or transferred in any manner without the express written
 approval of Fundicion Tipografica Neufville S. A. and Adobe Systems
 Incorporated. 
</metadata>
<defs>
<font id="FuturaStd-Book" horiz-adv-x="616" >
  <font-face 
    font-family="Futura Std"
    font-weight="400"
    font-stretch="normal"
    units-per-em="1000"
    panose-1="2 11 5 2 2 2 4 2 3 3"
    ascent="825"
    descent="-175"
    x-height="470"
    cap-height="754"
    bbox="-161 -293 1178 1006"
    underline-thickness="50"
    underline-position="-100"
    stemh="74"
    stemv="80"
    unicode-range="U+0020-FB02"
  />
<missing-glyph horiz-adv-x="500" 
d="M0 0v700h500v-700h-500zM250 395l170 255h-340zM280 350l170 -255v510zM80 50h340l-170 255zM50 605v-510l170 255z" />
    <glyph glyph-name="fi" unicode="fi" horiz-adv-x="519" 
d="M151 396v-396h-80v396h-44v74h44v187c0 39 0 88 21 122c26 42 73 59 121 59c19 0 38 -4 57 -10v-81c-18 6 -34 11 -54 11c-65 0 -65 -46 -65 -129v-159h119v-74h-119zM428 470v-470h-80v470h80zM388 704c31 0 57 -26 57 -57c0 -32 -26 -57 -57 -57s-57 25 -57 57
c0 31 26 57 57 57z" />
    <glyph glyph-name="fl" unicode="fl" horiz-adv-x="501" 
d="M428 825v-825h-80v825h80zM151 396v-396h-80v396h-44v74h44v187c0 39 0 88 21 122c26 42 73 59 121 59c19 0 38 -4 57 -10v-81c-18 6 -34 11 -54 11c-65 0 -65 -46 -65 -129v-159h119v-74h-119z" />
    <glyph glyph-name=".notdef" horiz-adv-x="500" 
d="M0 0v700h500v-700h-500zM250 395l170 255h-340zM280 350l170 -255v510zM80 50h340l-170 255zM50 605v-510l170 255z" />
    <glyph glyph-name="space" unicode=" " horiz-adv-x="308" 
 />
    <glyph glyph-name="exclam" unicode="!" horiz-adv-x="338" 
d="M169 99c31 0 56 -25 56 -55c0 -31 -25 -57 -56 -57s-56 26 -56 57c0 30 25 55 56 55zM128 153v601h82v-601h-82z" />
    <glyph glyph-name="quotedbl" unicode="&#x22;" horiz-adv-x="457" 
d="M102 754h94l-18 -328h-58zM261 754h94l-18 -328h-58z" />
    <glyph glyph-name="numbersign" unicode="#" 
d="M236 754h77l-36 -204h124l35 204h79l-35 -204h92v-78h-105l-29 -171h101v-78h-115l-40 -223h-76l39 223h-123l-42 -223h-75l39 223h-102v78h115l29 171h-107v78h119zM266 472l-29 -171h123l29 171h-123z" />
    <glyph glyph-name="dollar" unicode="$" 
d="M356 344v-268c63 21 102 77 102 143c0 64 -50 100 -102 125zM290 463v219c-53 -10 -93 -58 -93 -113s49 -86 93 -106zM290 69v305c-91 38 -177 87 -177 198c0 104 78 175 177 189v103h66v-103c68 -9 128 -54 158 -114l-66 -43c-20 35 -50 69 -92 77v-247
c99 -42 186 -93 186 -213c0 -111 -78 -204 -186 -226v-110h-66v104c-108 5 -197 89 -216 194l81 23c9 -69 64 -132 135 -137z" />
    <glyph glyph-name="percent" unicode="%" horiz-adv-x="797" 
d="M200 703c-56 0 -104 -45 -104 -101c0 -55 48 -100 104 -100s104 45 104 100c0 56 -48 101 -104 101zM597 767l40 -24l-436 -756l-43 26zM598 252c-56 0 -104 -45 -104 -101c0 -55 48 -100 104 -100s104 45 104 100c0 56 -48 101 -104 101zM200 767c92 0 168 -72 168 -165
c0 -92 -77 -164 -168 -164s-168 71 -168 164s76 165 168 165zM598 316c92 0 168 -72 168 -165c0 -92 -77 -164 -168 -164s-168 71 -168 164s76 165 168 165z" />
    <glyph glyph-name="ampersand" unicode="&#x26;" horiz-adv-x="695" 
d="M302 492l7 5c43 33 94 62 94 122c0 46 -38 77 -82 77c-46 0 -83 -36 -83 -83c0 -38 25 -66 46 -96zM581 0l-81 106c-67 -60 -147 -119 -241 -119c-115 0 -220 86 -220 206c0 126 91 186 185 248l9 6c-34 47 -75 98 -75 160c0 95 71 160 165 160c85 0 160 -60 160 -148
c0 -90 -68 -139 -133 -188l159 -203l85 99l61 -50l-96 -112l128 -165h-106zM282 385l-36 -24c-57 -39 -125 -85 -125 -162c0 -71 62 -136 133 -136c76 0 142 59 196 106z" />
    <glyph glyph-name="quoteright" unicode="&#x2019;" horiz-adv-x="289" 
d="M154 767l74 -27l-114 -255l-54 21z" />
    <glyph glyph-name="parenleft" unicode="(" horiz-adv-x="287" 
d="M184 788l71 -34c-57 -151 -80 -316 -80 -480s23 -329 80 -480l-71 -34c-70 149 -91 352 -91 514s21 365 91 514z" />
    <glyph glyph-name="parenright" unicode=")" horiz-adv-x="287" 
d="M32 754l71 34c70 -149 91 -352 91 -514s-21 -365 -91 -514l-71 34c57 151 80 316 80 480s-23 329 -80 480z" />
    <glyph glyph-name="asterisk" unicode="*" horiz-adv-x="592" 
d="M265 614l-6 140h75l-6 -140l132 49l24 -72l-136 -38l87 -110l-61 -45l-78 118l-78 -118l-61 45l88 110l-136 38l24 72z" />
    <glyph glyph-name="plus" unicode="+" 
d="M269 498h78v-203h203v-78h-203v-203h-78v203h-203v78h203v203z" />
    <glyph glyph-name="comma" unicode="," horiz-adv-x="308" 
d="M151 110l74 -26l-113 -256l-54 22z" />
    <glyph glyph-name="hyphen" unicode="-" horiz-adv-x="208" 
d="M2 278h205v-74h-205v74z" />
    <glyph glyph-name="period" unicode="." horiz-adv-x="308" 
d="M154 99c31 0 56 -25 56 -55c0 -31 -25 -57 -56 -57s-56 26 -56 57c0 30 25 55 56 55z" />
    <glyph glyph-name="slash" unicode="/" horiz-adv-x="570" 
d="M486 825l66 -30l-469 -952l-65 30z" />
    <glyph glyph-name="zero" unicode="0" 
d="M308 767c191 0 270 -236 270 -391c0 -186 -98 -389 -270 -389s-270 203 -270 389c0 155 79 391 270 391zM308 689c-142 0 -188 -210 -186 -317c2 -106 47 -307 186 -307s184 201 186 307c2 107 -44 317 -186 317z" />
    <glyph glyph-name="one" unicode="1" 
d="M283 676h-125l44 78h165v-754h-84v676z" />
    <glyph glyph-name="two" unicode="2" 
d="M211 78h318v-78h-488l353 417c30 36 51 77 51 126c0 84 -68 146 -150 146c-91 0 -150 -67 -152 -155h-84c3 132 100 233 233 233c126 0 237 -92 237 -223c0 -61 -18 -114 -57 -159z" />
    <glyph glyph-name="three" unicode="3" 
d="M271 357v78c80 3 149 27 149 122c0 80 -53 132 -132 132c-75 0 -117 -50 -124 -121h-83c12 120 85 199 209 199c121 0 214 -82 214 -206c0 -67 -36 -134 -97 -165c73 -33 108 -108 108 -185c0 -132 -105 -224 -234 -224c-122 0 -222 83 -224 209h82
c4 -77 69 -131 145 -131c84 0 147 68 147 151c0 96 -68 144 -160 141z" />
    <glyph glyph-name="four" unicode="4" 
d="M476 200h93v-78h-93v-122h-84v122h-386l468 674h2v-596zM392 200v341h-2l-237 -341h239z" />
    <glyph glyph-name="five" unicode="5" 
d="M523 676h-241l-49 -161l45 4c149 0 251 -117 251 -263c0 -156 -123 -269 -277 -269c-99 0 -181 50 -231 135l67 48c34 -61 95 -105 167 -105c111 0 190 83 190 193c0 107 -83 183 -188 183c-52 0 -100 -20 -143 -48l109 361h300v-78z" />
    <glyph glyph-name="six" unicode="6" 
d="M363 767l63 -47l-174 -234l2 -2c10 4 21 6 32 8s23 3 34 3c137 0 244 -113 244 -249c0 -144 -118 -259 -260 -259c-143 0 -260 116 -260 258c0 69 31 128 69 181zM304 65c98 0 176 80 176 178s-79 174 -176 174c-98 0 -176 -76 -176 -174s78 -178 176 -178z" />
    <glyph glyph-name="seven" unicode="7" 
d="M463 676h-412v78h556l-506 -767l-66 39z" />
    <glyph glyph-name="eight" unicode="8" 
d="M308 355c-82 0 -146 -65 -146 -145s64 -145 146 -145s146 65 146 145s-64 145 -146 145zM308 767c118 0 211 -89 211 -210c0 -66 -34 -132 -92 -165c71 -32 111 -104 111 -181c0 -130 -100 -224 -230 -224s-230 94 -230 224c0 77 40 149 111 181c-58 33 -92 99 -92 165
c0 121 93 210 211 210zM308 689c-72 0 -131 -58 -131 -130c0 -73 59 -132 131 -132s131 59 131 132c0 72 -59 130 -131 130z" />
    <glyph glyph-name="nine" unicode="9" 
d="M245 -13l-63 43l174 239l-2 2c-20 -6 -42 -10 -65 -10c-138 0 -244 112 -244 249c0 143 118 257 260 257s260 -114 260 -257c0 -68 -31 -127 -70 -181zM305 689c-98 0 -176 -79 -176 -176c0 -98 78 -174 176 -174c97 0 176 76 176 174c0 97 -79 176 -176 176z" />
    <glyph glyph-name="colon" unicode=":" horiz-adv-x="308" 
d="M154 99c31 0 56 -25 56 -55c0 -31 -25 -57 -56 -57s-56 26 -56 57c0 30 25 55 56 55zM154 483c31 0 56 -25 56 -55c0 -31 -25 -57 -56 -57s-56 26 -56 57c0 30 25 55 56 55z" />
    <glyph glyph-name="semicolon" unicode=";" horiz-adv-x="308" 
d="M153 110l74 -26l-113 -256l-54 22zM179 483c31 0 56 -25 56 -55c0 -31 -25 -57 -56 -57s-56 26 -56 57c0 30 25 55 56 55z" />
    <glyph glyph-name="less" unicode="&#x3c;" 
d="M550 498v-85l-368 -157l368 -157v-85l-484 207v70z" />
    <glyph glyph-name="equal" unicode="=" 
d="M66 373h484v-78h-484v78zM66 217h484v-78h-484v78z" />
    <glyph glyph-name="greater" unicode="&#x3e;" 
d="M66 413v85l484 -207v-70l-484 -207v85l368 157z" />
    <glyph glyph-name="question" unicode="?" horiz-adv-x="488" 
d="M325 328h81c3 -96 -66 -173 -163 -173c-93 0 -163 71 -163 163c0 90 61 128 137 153c64 20 127 33 127 115c0 61 -43 104 -103 104c-57 0 -98 -44 -98 -99c0 -16 2 -32 6 -48h-83l-4 53c0 104 85 171 184 171c102 0 180 -78 180 -180c0 -49 -18 -101 -54 -134
c-35 -31 -89 -45 -133 -58c-43 -12 -77 -33 -77 -83c0 -45 37 -80 82 -80c56 0 81 46 81 96zM242 99c31 0 56 -25 56 -55c0 -31 -25 -57 -56 -57s-56 26 -56 57c0 30 25 55 56 55z" />
    <glyph glyph-name="at" unicode="@" horiz-adv-x="800" 
d="M261 346c0 -68 38 -120 108 -120c89 0 125 75 134 146c10 80 -33 135 -102 135c-81 0 -140 -84 -140 -161zM528 505l14 61h71l-50 -255c-7 -33 -20 -85 14 -85c46 0 111 96 116 191c10 176 -115 278 -278 278c-178 0 -307 -136 -307 -318c0 -192 143 -318 324 -318
c83 0 149 16 191 46l70 -51c-70 -36 -148 -67 -269 -67c-215 0 -388 165 -388 390c0 222 169 390 382 390c88 0 169 -27 235 -86c68 -59 112 -136 112 -229c0 -82 -22 -158 -62 -210c-48 -63 -106 -88 -154 -86c-28 1 -48 23 -54 61c-34 -34 -76 -61 -136 -61
c-88 0 -168 81 -168 183c0 120 80 236 204 236c51 0 93 -18 133 -70z" />
    <glyph glyph-name="A" unicode="A" horiz-adv-x="699" 
d="M511 214h-322l-91 -214h-92l348 790l339 -790h-93zM478 292l-126 302l-129 -302h255z" />
    <glyph glyph-name="B" unicode="B" horiz-adv-x="568" 
d="M160 350v-272h84c94 0 193 23 193 138c0 117 -112 134 -204 134h-73zM76 0v754h124c137 0 252 -50 252 -204c0 -61 -23 -113 -74 -147c90 -22 143 -103 143 -193c0 -150 -121 -210 -270 -210h-175zM160 676v-254h32c95 0 176 11 176 128c0 114 -72 126 -175 126h-33z" />
    <glyph glyph-name="C" unicode="C" horiz-adv-x="717" 
d="M651 693v-104c-60 62 -143 100 -230 100c-168 0 -304 -146 -304 -312s137 -312 306 -312c85 0 168 40 228 100v-104c-65 -47 -145 -74 -225 -74c-213 0 -393 173 -393 387c0 216 177 393 393 393c84 0 158 -24 225 -74z" />
    <glyph glyph-name="D" unicode="D" horiz-adv-x="678" 
d="M76 0v754h142c113 0 205 -15 294 -91c86 -74 125 -175 125 -287c0 -110 -40 -207 -123 -281c-90 -80 -180 -95 -298 -95h-140zM160 78h61c92 0 169 13 238 78c62 58 94 137 94 221c0 86 -33 169 -98 226c-69 61 -145 73 -234 73h-61v-598z" />
    <glyph glyph-name="E" unicode="E" horiz-adv-x="534" 
d="M76 0v754h391v-78h-307v-224h298v-78h-298v-296h307v-78h-391z" />
    <glyph glyph-name="F" unicode="F" horiz-adv-x="478" 
d="M419 676h-259v-224h251v-78h-251v-374h-84v754h343v-78z" />
    <glyph glyph-name="G" unicode="G" horiz-adv-x="820" 
d="M463 379h314c2 -102 -9 -186 -78 -266s-174 -126 -279 -126c-212 0 -388 176 -388 388c0 216 176 392 393 392c132 0 239 -59 319 -163l-61 -57c-63 89 -148 142 -259 142c-172 0 -308 -145 -308 -315c0 -80 32 -156 88 -213c55 -55 135 -96 214 -96
c131 0 269 96 269 236h-224v78z" />
    <glyph glyph-name="H" unicode="H" horiz-adv-x="714" 
d="M164 448h386v306h84v-754h-84v370h-386v-370h-84v754h84v-306z" />
    <glyph glyph-name="I" unicode="I" horiz-adv-x="239" 
d="M162 754v-754h-84v754h84z" />
    <glyph glyph-name="J" unicode="J" horiz-adv-x="314" 
d="M236 754v-597c0 -60 0 -123 -38 -173c-31 -41 -79 -62 -130 -62c-50 0 -96 24 -134 56l47 65c27 -25 50 -43 89 -43c82 0 82 98 82 157v597h84z" />
    <glyph glyph-name="K" unicode="K" horiz-adv-x="611" 
d="M160 431l321 323h113l-354 -351l366 -403h-116l-309 346l-21 -21v-325h-84v754h84v-323z" />
    <glyph glyph-name="L" unicode="L" horiz-adv-x="375" 
d="M160 754v-676h208v-78h-292v754h84z" />
    <glyph glyph-name="M" unicode="M" horiz-adv-x="896" 
d="M21 0l153 797l274 -633l275 633l153 -797h-86l-97 510h-2l-243 -541l-242 541h-2l-97 -510h-86z" />
    <glyph glyph-name="N" unicode="N" horiz-adv-x="834" 
d="M81 0v786l588 -616v584h84v-788l-588 615v-581h-84z" />
    <glyph glyph-name="O" unicode="O" horiz-adv-x="862" 
d="M431 767c215 0 393 -175 393 -391c0 -217 -178 -389 -393 -389s-393 172 -393 389c0 216 178 391 393 391zM431 689c-173 0 -309 -141 -309 -312c0 -170 138 -312 309 -312s309 142 309 312c0 171 -136 312 -309 312z" />
    <glyph glyph-name="P" unicode="P" horiz-adv-x="503" 
d="M160 330v-330h-84v754h124c65 0 132 -2 187 -40c56 -39 85 -105 85 -172c0 -61 -25 -123 -72 -162c-51 -42 -116 -50 -179 -50h-61zM160 676v-268h56c93 0 172 28 172 136c0 123 -99 132 -197 132h-31z" />
    <glyph glyph-name="Q" unicode="Q" horiz-adv-x="862" 
d="M527 304l130 -136c56 59 83 128 83 209c0 172 -136 312 -309 312s-309 -141 -309 -312c0 -170 138 -312 309 -312c56 0 122 21 168 56l-182 183h110zM721 -7l-63 68c-62 -47 -151 -74 -227 -74c-215 0 -393 172 -393 389c0 216 178 391 393 391c218 0 393 -177 393 -393
c0 -105 -38 -190 -109 -266l113 -115h-107z" />
    <glyph glyph-name="R" unicode="R" horiz-adv-x="542" 
d="M160 676v-271h26c95 0 191 18 191 135c0 124 -91 136 -192 136h-25zM160 331v-331h-84v754h109c143 0 276 -38 276 -208c0 -116 -73 -198 -189 -208l240 -338h-103l-228 331h-21z" />
    <glyph glyph-name="S" unicode="S" horiz-adv-x="559" 
d="M485 650l-67 -43c-30 52 -66 82 -130 82c-67 0 -125 -48 -125 -117c0 -65 67 -95 118 -118l50 -22c98 -43 181 -92 181 -212c0 -132 -106 -233 -237 -233c-121 0 -211 78 -235 195l82 23c11 -77 70 -140 151 -140s155 62 155 147c0 88 -69 118 -139 150l-46 20
c-88 40 -164 85 -164 193c0 117 99 192 211 192c84 0 155 -43 195 -117z" />
    <glyph glyph-name="T" unicode="T" horiz-adv-x="470" 
d="M276 676v-676h-84v676h-182v78h450v-78h-184z" />
    <glyph glyph-name="U" unicode="U" horiz-adv-x="685" 
d="M158 754v-449c0 -56 -2 -120 33 -168c33 -46 97 -72 152 -72c54 0 113 25 148 67c40 48 37 114 37 173v449h84v-472c0 -82 -6 -147 -66 -209c-52 -56 -127 -86 -203 -86c-71 0 -144 27 -195 77c-66 63 -74 132 -74 218v472h84z" />
    <glyph glyph-name="V" unicode="V" horiz-adv-x="624" 
d="M97 754l215 -575l215 575h91l-306 -799l-306 799h91z" />
    <glyph glyph-name="W" unicode="W" horiz-adv-x="1091" 
d="M104 754l198 -565l244 604l244 -604l198 565h91l-289 -793l-244 607l-244 -607l-289 793h91z" />
    <glyph glyph-name="X" unicode="X" horiz-adv-x="564" 
d="M236 390l-204 364h96l154 -284l154 284h96l-204 -364l223 -390h-96l-173 310l-173 -310h-96z" />
    <glyph glyph-name="Y" unicode="Y" horiz-adv-x="593" 
d="M255 324l-247 430h97l192 -336l192 336h97l-247 -430v-324h-84v324z" />
    <glyph glyph-name="Z" unicode="Z" horiz-adv-x="586" 
d="M153 78h401v-78h-540l411 676h-359v78h499z" />
    <glyph glyph-name="bracketleft" unicode="[" horiz-adv-x="315" 
d="M186 714v-880h108v-74h-190v1028h190v-74h-108z" />
    <glyph glyph-name="backslash" unicode="\" horiz-adv-x="570" 
d="M18 795l66 30l468 -825l-65 -30z" />
    <glyph glyph-name="bracketright" unicode="]" horiz-adv-x="315" 
d="M129 -166v880h-108v74h190v-1028h-190v74h108z" />
    <glyph glyph-name="asciicircum" unicode="^" 
d="M66 322l206 432h72l206 -432h-89l-153 328l-155 -328h-87z" />
    <glyph glyph-name="underscore" unicode="_" horiz-adv-x="500" 
d="M500 -75v-50h-500v50h500z" />
    <glyph glyph-name="quoteleft" unicode="&#x2018;" horiz-adv-x="289" 
d="M135 485l-74 27l114 255l54 -21z" />
    <glyph glyph-name="a" unicode="a" horiz-adv-x="577" 
d="M271 409c-93 0 -153 -81 -153 -169c0 -92 54 -179 154 -179c103 0 157 83 157 178c0 94 -59 170 -158 170zM505 470v-470h-80v65h-2c-41 -52 -96 -78 -162 -78c-138 0 -225 117 -225 247c0 134 85 249 226 249c64 0 122 -30 161 -80h2v67h80z" />
    <glyph glyph-name="b" unicode="b" horiz-adv-x="577" 
d="M301 409c-93 0 -153 -81 -153 -169c0 -92 54 -179 154 -179c103 0 157 83 157 178c0 94 -59 170 -158 170zM72 0v825h80v-422h2c38 50 97 80 161 80c140 0 226 -115 226 -248c0 -131 -87 -248 -225 -248c-65 0 -124 27 -162 78h-2v-65h-80z" />
    <glyph glyph-name="c" unicode="c" horiz-adv-x="476" 
d="M425 436v-106h-2c-37 47 -83 79 -146 79c-97 0 -166 -80 -166 -174c0 -93 64 -174 162 -174c67 0 114 30 153 81h2v-107c-46 -31 -93 -48 -149 -48c-142 0 -250 106 -250 248c0 140 113 248 251 248c51 0 103 -17 145 -47z" />
    <glyph glyph-name="d" unicode="d" horiz-adv-x="577" 
d="M271 409c-93 0 -153 -81 -153 -169c0 -92 54 -179 154 -179c103 0 157 83 157 178c0 94 -59 170 -158 170zM425 0v65h-2c-39 -51 -98 -78 -162 -78c-138 0 -225 117 -225 247c0 134 85 249 226 249c63 0 123 -30 161 -80h2v422h80v-825h-80z" />
    <glyph glyph-name="e" unicode="e" horiz-adv-x="519" 
d="M485 218h-369c1 -87 63 -157 154 -157c68 0 112 41 143 97l68 -39c-45 -84 -121 -132 -217 -132c-140 0 -230 107 -230 242c0 139 81 254 228 254c151 0 231 -125 223 -265zM120 286h281c-11 68 -68 123 -138 123c-69 0 -133 -55 -143 -123z" />
    <glyph glyph-name="f" unicode="f" horiz-adv-x="274" 
d="M163 396v-396h-80v396h-44v74h44v187c0 39 0 88 21 122c26 42 73 59 121 59c19 0 38 -4 57 -10v-81c-18 6 -34 11 -54 11c-65 0 -65 -46 -65 -129v-159h119v-74h-119z" />
    <glyph glyph-name="g" unicode="g" horiz-adv-x="580" 
d="M266 409c-93 0 -153 -81 -153 -169c0 -92 54 -179 154 -179c103 0 157 83 157 178c0 94 -59 170 -158 170zM500 470v-447c0 -75 0 -140 -48 -202c-44 -56 -112 -83 -182 -83c-131 0 -228 83 -231 216h80c1 -87 64 -142 150 -142c124 0 151 91 151 197v56h-2
c-38 -49 -100 -78 -163 -78c-137 0 -224 115 -224 246c0 132 88 250 227 250c65 0 122 -29 160 -80h2v67h80z" />
    <glyph glyph-name="h" unicode="h" horiz-adv-x="528" 
d="M76 825h80v-410l2 -2c33 45 76 70 134 70c130 0 160 -94 160 -204v-279h-80v265c0 76 -6 144 -99 144c-110 0 -117 -102 -117 -186v-223h-80v825z" />
    <glyph glyph-name="i" unicode="i" horiz-adv-x="262" 
d="M171 470v-470h-80v470h80zM131 704c31 0 57 -26 57 -57c0 -32 -26 -57 -57 -57s-57 25 -57 57c0 31 26 57 57 57z" />
    <glyph glyph-name="j" unicode="j" horiz-adv-x="262" 
d="M171 470v-734h-80v734h80zM131 704c31 0 57 -26 57 -57c0 -32 -26 -57 -57 -57s-57 25 -57 57c0 31 26 57 57 57z" />
    <glyph glyph-name="k" unicode="k" horiz-adv-x="470" 
d="M152 825v-529l171 174h107l-201 -200l239 -270h-106l-189 214l-21 -21v-193h-80v825h80z" />
    <glyph glyph-name="l" unicode="l" horiz-adv-x="227" 
d="M154 825v-825h-80v825h80z" />
    <glyph glyph-name="m" unicode="m" horiz-adv-x="768" 
d="M156 470v-51h2c25 39 65 64 113 64c55 0 105 -29 130 -78c28 52 84 78 141 78c120 0 150 -98 150 -197v-286h-80v273c0 61 -4 136 -86 136c-92 0 -102 -89 -102 -160v-249h-80v267c0 58 -7 142 -84 142c-94 0 -104 -95 -104 -166v-243h-80v470h80z" />
    <glyph glyph-name="n" unicode="n" horiz-adv-x="528" 
d="M156 470v-57h2c33 45 76 70 134 70c130 0 160 -94 160 -204v-279h-80v265c0 76 -6 144 -99 144c-110 0 -117 -102 -117 -186v-223h-80v470h80z" />
    <glyph glyph-name="o" unicode="o" horiz-adv-x="562" 
d="M281 -13c-137 0 -247 109 -247 247s109 249 247 249s247 -111 247 -249s-110 -247 -247 -247zM281 409c-99 0 -167 -79 -167 -174c0 -96 68 -174 167 -174s167 78 167 174c0 95 -68 174 -167 174z" />
    <glyph glyph-name="p" unicode="p" horiz-adv-x="577" 
d="M301 409c-93 0 -153 -81 -153 -169c0 -92 54 -179 154 -179c103 0 157 83 157 178c0 94 -59 170 -158 170zM152 470v-67h2c39 52 97 80 162 80c138 0 225 -119 225 -249c0 -134 -85 -247 -226 -247c-64 0 -123 28 -161 79h-2v-330h-80v734h80z" />
    <glyph glyph-name="q" unicode="q" horiz-adv-x="577" 
d="M271 409c-93 0 -153 -81 -153 -169c0 -92 54 -179 154 -179c103 0 157 83 157 178c0 94 -59 170 -158 170zM505 470v-734h-80v330h-2c-38 -51 -98 -79 -161 -79c-141 0 -226 113 -226 246c0 131 86 250 225 250c64 0 123 -28 162 -80h2v67h80z" />
    <glyph glyph-name="r" unicode="r" horiz-adv-x="335" 
d="M152 470v-51h2c28 37 52 64 104 64c27 0 49 -9 72 -22l-38 -73c-16 11 -27 21 -48 21c-88 0 -92 -113 -92 -174v-235h-80v470h80z" />
    <glyph glyph-name="s" unicode="s" horiz-adv-x="399" 
d="M333 396l-67 -35c-11 25 -35 48 -64 48c-28 0 -58 -22 -58 -52c0 -43 54 -59 109 -82s109 -56 109 -135c0 -89 -72 -153 -159 -153c-79 0 -141 45 -166 119l71 30c20 -44 43 -75 96 -75c43 0 76 29 76 72c0 105 -212 69 -212 217c0 79 64 133 140 133
c54 0 104 -38 125 -87z" />
    <glyph glyph-name="t" unicode="t" horiz-adv-x="240" 
d="M160 396v-396h-80v396h-49v74h49v169h80v-169h84v-74h-84z" />
    <glyph glyph-name="u" unicode="u" horiz-adv-x="512" 
d="M150 470v-262c0 -79 9 -147 106 -147s106 68 106 147v262h80v-271c0 -125 -47 -212 -186 -212s-186 87 -186 212v271h80z" />
    <glyph glyph-name="v" unicode="v" horiz-adv-x="463" 
d="M92 470l140 -316l140 316h90l-230 -501l-231 501h91z" />
    <glyph glyph-name="w" unicode="w" horiz-adv-x="760" 
d="M94 470l139 -318l146 354l147 -354l140 318h91l-233 -503l-145 350l-145 -350l-231 503h91z" />
    <glyph glyph-name="x" unicode="x" horiz-adv-x="498" 
d="M201 250l-171 220h98l123 -160l123 160h100l-172 -220l195 -250h-97l-149 191l-150 -191h-100z" />
    <glyph glyph-name="y" unicode="y" horiz-adv-x="498" 
d="M214 44l-216 426h93l166 -337l152 337h91l-347 -734h-91z" />
    <glyph glyph-name="z" unicode="z" horiz-adv-x="519" 
d="M172 74h324v-74h-486l339 396h-276v74h437z" />
    <glyph glyph-name="braceleft" unicode="{" horiz-adv-x="334" 
d="M51 242v64c68 21 75 73 75 160v187c0 81 55 135 85 135h73v-74h-40c-36 0 -36 -30 -36 -76v-189c0 -117 -63 -167 -76 -175c13 -8 76 -58 76 -176v-188c0 -46 0 -76 36 -76h40v-74h-73c-30 0 -85 54 -85 135v186c0 88 -7 140 -75 161z" />
    <glyph glyph-name="bar" unicode="|" horiz-adv-x="570" 
d="M324 786v-1000h-78v1000h78z" />
    <glyph glyph-name="braceright" unicode="}" horiz-adv-x="334" 
d="M283 306v-64c-68 -21 -75 -73 -75 -161v-186c0 -81 -55 -135 -85 -135h-73v74h40c36 0 36 30 36 76v188c0 118 63 168 76 176c-13 8 -76 58 -76 175v189c0 46 0 76 -36 76h-40v74h73c30 0 85 -54 85 -135v-187c0 -87 7 -139 75 -160z" />
    <glyph glyph-name="asciitilde" unicode="~" 
d="M135 172l-69 28c29 80 74 147 139 147c34 0 74 -22 109 -45c34 -22 70 -54 97 -54c28 0 55 43 71 97l68 -28c-27 -80 -73 -147 -139 -147c-34 0 -72 24 -102 44c-44 29 -77 54 -104 54c-28 0 -53 -42 -70 -96z" />
    <glyph glyph-name="exclamdown" unicode="&#xa1;" horiz-adv-x="338" 
d="M169 483c31 0 56 -25 56 -55c0 -31 -25 -57 -56 -57s-56 26 -56 57c0 30 25 55 56 55zM210 317v-601h-82v601h82z" />
    <glyph glyph-name="cent" unicode="&#xa2;" 
d="M491 587v-106h-2c-29 37 -70 69 -118 76v-344c50 7 92 41 120 80h2v-107c-36 -24 -78 -44 -122 -47v-112h-66v113c-118 13 -210 123 -210 240c0 123 86 234 210 249v106h66v-104c43 -4 84 -19 120 -44zM305 214v341c-78 -15 -128 -93 -128 -169c0 -79 48 -156 128 -172z
" />
    <glyph glyph-name="sterling" unicode="&#xa3;" 
d="M208 268h-127v64h100l-19 37c-31 61 -64 113 -64 184c0 123 102 214 223 214c131 0 218 -98 219 -226l-82 -22c-1 86 -36 168 -135 168c-76 0 -139 -58 -139 -136c0 -79 59 -149 89 -219h142v-64h-120c4 -15 7 -30 7 -45c0 -36 -15 -77 -33 -108l5 -2
c36 -12 112 -43 145 -43c45 0 71 40 91 75l68 -41c-28 -62 -82 -116 -154 -116c-41 0 -83 15 -122 29c-40 14 -77 29 -110 29c-41 0 -70 -27 -90 -61l-65 44c32 52 82 96 146 97c19 27 32 59 32 93c0 16 -2 33 -7 49z" />
    <glyph glyph-name="fraction" unicode="&#x2044;" horiz-adv-x="161" 
d="M278 767l44 -24l-439 -756l-44 24z" />
    <glyph glyph-name="yen" unicode="&#xa5;" 
d="M266 0v256h-237v64h237l-55 100h-182v64h145l-155 270h97l192 -334l192 334h97l-155 -270h145v-64h-182l-55 -100h237v-64h-237v-256h-84z" />
    <glyph glyph-name="florin" unicode="&#x192;" 
d="M538 825l-15 -75c-16 7 -32 11 -50 11c-28 0 -50 -6 -64 -32c-13 -26 -20 -63 -26 -91l-25 -136h120l-11 -68h-121l-58 -314c-10 -56 -22 -132 -54 -180c-40 -58 -111 -80 -179 -80l-50 4l16 75l34 -1c119 0 134 89 151 186l57 310h-82l11 68h84l28 158
c17 98 51 178 166 178c23 0 46 -4 68 -13z" />
    <glyph glyph-name="section" unicode="&#xa7;" horiz-adv-x="592" 
d="M296 402c-61 0 -110 -49 -110 -110s49 -111 110 -111s111 50 111 111s-50 110 -111 110zM105 4h81c0 -67 29 -116 102 -116c64 0 103 35 103 100c0 74 -57 94 -116 116c-36 15 -81 30 -112 55c-42 33 -61 79 -61 132c0 73 37 135 105 163c-56 28 -88 77 -88 141
c0 105 89 172 189 172c52 0 112 -24 143 -67c25 -35 35 -86 36 -129h-80c-4 75 -34 119 -100 119c-60 0 -106 -38 -106 -101c0 -78 72 -95 145 -121c72 -26 144 -62 144 -179c0 -74 -41 -127 -105 -160c60 -31 88 -78 88 -146c0 -108 -81 -172 -186 -172
c-128 0 -177 75 -182 193z" />
    <glyph glyph-name="currency" unicode="&#xa4;" 
d="M66 498l36 36l42 -42c54 39 100 58 164 58s110 -19 164 -58l42 42l36 -36l-40 -40c37 -57 53 -101 53 -158s-16 -101 -53 -158l40 -40l-36 -36l-42 42c-54 -39 -100 -58 -164 -58s-110 19 -164 58l-42 -42l-36 36l40 40c-37 57 -53 101 -53 158s16 101 53 158zM308 486
c-108 -2 -193 -79 -191 -186c2 -100 86 -186 191 -186s189 86 191 186c2 107 -83 184 -191 186z" />
    <glyph glyph-name="quotesingle" unicode="'" horiz-adv-x="289" 
d="M98 754h94l-18 -328h-58z" />
    <glyph glyph-name="quotedblleft" unicode="&#x201c;" horiz-adv-x="457" 
d="M303 485l-74 27l114 255l54 -21zM135 485l-74 27l114 255l54 -21z" />
    <glyph glyph-name="guillemotleft" unicode="&#xab;" horiz-adv-x="500" 
d="M297 240l135 -166l-53 -41l-168 207l168 213l53 -42zM127 240l135 -166l-53 -41l-168 207l168 213l53 -42z" />
    <glyph glyph-name="guilsinglleft" unicode="&#x2039;" horiz-adv-x="330" 
d="M127 240l135 -166l-53 -41l-168 207l168 213l53 -42z" />
    <glyph glyph-name="guilsinglright" unicode="&#x203a;" horiz-adv-x="330" 
d="M68 74l135 166l-135 171l53 42l168 -213l-168 -207z" />
    <glyph glyph-name="endash" unicode="&#x2013;" horiz-adv-x="500" 
d="M0 278h500v-74h-500v74z" />
    <glyph glyph-name="dagger" unicode="&#x2020;" horiz-adv-x="592" 
d="M255 754h82v-185h167v-78h-167v-654h-82v654h-167v78h167v185z" />
    <glyph glyph-name="daggerdbl" unicode="&#x2021;" horiz-adv-x="592" 
d="M255 754h82v-185h167v-78h-167v-363h167v-78h-167v-213h-82v213h-167v78h167v363h-167v78h167v185z" />
    <glyph glyph-name="periodcentered" unicode="&#xb7;" horiz-adv-x="308" 
d="M154 311c31 0 56 -25 56 -55c0 -31 -25 -57 -56 -57s-56 26 -56 57c0 30 25 55 56 55z" />
    <glyph glyph-name="paragraph" unicode="&#xb6;" horiz-adv-x="592" 
d="M534 754v-65h-58v-842h-65v842h-81v-842h-65v436c-113 0 -196 79 -206 214c-9 121 83 257 215 257h260z" />
    <glyph glyph-name="bullet" unicode="&#x2022;" horiz-adv-x="592" 
d="M296 189c-103 0 -188 83 -188 188c-1 105 83 189 188 189s189 -84 189 -189s-86 -188 -189 -188z" />
    <glyph glyph-name="quotesinglbase" unicode="&#x201a;" horiz-adv-x="289" 
d="M155 110l74 -26l-114 -256l-54 22z" />
    <glyph glyph-name="quotedblbase" unicode="&#x201e;" horiz-adv-x="464" 
d="M155 110l74 -26l-114 -256l-54 22zM330 110l74 -26l-114 -256l-54 22z" />
    <glyph glyph-name="quotedblright" unicode="&#x201d;" horiz-adv-x="457" 
d="M155 767l74 -27l-114 -255l-54 21zM323 767l74 -27l-114 -255l-54 21z" />
    <glyph glyph-name="guillemotright" unicode="&#xbb;" horiz-adv-x="500" 
d="M68 74l135 166l-135 171l53 42l168 -213l-168 -207zM238 74l135 166l-135 171l53 42l168 -213l-168 -207z" />
    <glyph glyph-name="ellipsis" unicode="&#x2026;" horiz-adv-x="1000" 
d="M168 99c31 0 56 -25 56 -55c0 -31 -25 -57 -56 -57s-56 26 -56 57c0 30 25 55 56 55zM500 99c31 0 56 -25 56 -55c0 -31 -25 -57 -56 -57s-56 26 -56 57c0 30 25 55 56 55zM832 99c31 0 56 -25 56 -55c0 -31 -25 -57 -56 -57s-56 26 -56 57c0 30 25 55 56 55z" />
    <glyph glyph-name="perthousand" unicode="&#x2030;" horiz-adv-x="1212" 
d="M202 703c-56 0 -104 -45 -104 -101c0 -55 48 -100 104 -100s104 45 104 100c0 56 -48 101 -104 101zM599 767l40 -24l-436 -756l-43 26zM600 252c-56 0 -104 -45 -104 -101c0 -55 48 -100 104 -100s104 45 104 100c0 56 -48 101 -104 101zM202 767c92 0 168 -72 168 -165
c0 -92 -77 -164 -168 -164s-168 71 -168 164s76 165 168 165zM600 316c92 0 168 -72 168 -165c0 -92 -77 -164 -168 -164s-168 71 -168 164s76 165 168 165zM1010 316c92 0 168 -72 168 -165c0 -92 -77 -164 -168 -164s-168 71 -168 164s76 165 168 165zM1010 252
c-56 0 -104 -45 -104 -101c0 -55 48 -100 104 -100s104 45 104 100c0 56 -48 101 -104 101z" />
    <glyph glyph-name="questiondown" unicode="&#xbf;" horiz-adv-x="488" 
d="M163 146h-81c-3 96 66 173 163 173c93 0 163 -71 163 -163c0 -90 -61 -128 -137 -153c-64 -20 -127 -33 -127 -115c0 -61 43 -104 103 -104c57 0 98 44 98 99c0 16 -2 32 -6 48h83l4 -53c0 -104 -85 -171 -184 -171c-102 0 -180 78 -180 180c0 49 18 101 54 134
c35 31 89 45 133 58c43 12 77 33 77 83c0 45 -37 80 -82 80c-56 0 -81 -46 -81 -96zM246 483c31 0 56 -25 56 -56s-25 -56 -56 -56s-56 25 -56 56s25 56 56 56z" />
    <glyph glyph-name="grave" unicode="`" horiz-adv-x="358" 
d="M78 706l84 38l119 -164l-50 -28z" />
    <glyph glyph-name="acute" unicode="&#xb4;" horiz-adv-x="358" 
d="M197 744l84 -38l-153 -154l-50 28z" />
    <glyph glyph-name="circumflex" unicode="&#x2c6;" horiz-adv-x="470" 
d="M78 604l156 133l158 -133l-58 -45l-100 85l-99 -85z" />
    <glyph glyph-name="tilde" unicode="&#x2dc;" horiz-adv-x="506" 
d="M127 588l-49 39c23 40 52 79 102 79c30 0 57 -11 81 -23c25 -11 46 -23 64 -23c28 0 44 26 56 48l47 -38c-18 -44 -57 -81 -106 -81c-24 0 -50 11 -75 23c-25 11 -49 22 -70 22c-28 0 -40 -24 -50 -46z" />
    <glyph glyph-name="macron" unicode="&#xaf;" horiz-adv-x="499" 
d="M79 682h342v-68h-342v68z" />
    <glyph glyph-name="breve" unicode="&#x2d8;" horiz-adv-x="485" 
d="M79 716h69c17 -45 46 -68 95 -68s78 23 95 68h69c-11 -83 -82 -136 -164 -136c-81 0 -153 53 -164 136z" />
    <glyph glyph-name="dotaccent" unicode="&#x2d9;" horiz-adv-x="358" 
d="M179 716c30 0 54 -24 54 -54s-24 -54 -54 -54s-54 24 -54 54s24 54 54 54z" />
    <glyph glyph-name="dieresis" unicode="&#xa8;" horiz-adv-x="467" 
d="M135 705c30 0 54 -24 54 -54s-24 -54 -54 -54s-54 24 -54 54s24 54 54 54zM332 705c30 0 54 -24 54 -54s-24 -54 -54 -54s-54 24 -54 54s24 54 54 54z" />
    <glyph glyph-name="ring" unicode="&#x2da;" horiz-adv-x="350" 
d="M176 747c53 0 97 -44 97 -97c0 -54 -43 -98 -97 -98s-98 44 -98 98c0 53 44 97 98 97zM176 697c-26 0 -48 -21 -48 -47s22 -48 48 -48s47 22 47 48s-21 47 -47 47z" />
    <glyph glyph-name="cedilla" unicode="&#xb8;" horiz-adv-x="325" 
d="M248 -53l-114 -146l-56 28l96 148z" />
    <glyph glyph-name="hungarumlaut" unicode="&#x2dd;" horiz-adv-x="467" 
d="M223 742l-95 -159l-40 11l59 162zM380 742l-95 -159l-40 11l59 162z" />
    <glyph glyph-name="ogonek" unicode="&#x2db;" horiz-adv-x="337" 
d="M161 0h64v-2c-31 -21 -80 -58 -80 -100c0 -32 27 -45 55 -45c21 0 42 7 60 18l-10 -66c-20 -10 -41 -15 -63 -15c-55 0 -109 34 -109 93c0 52 42 92 83 117z" />
    <glyph glyph-name="caron" unicode="&#x2c7;" horiz-adv-x="470" 
d="M392 692l-156 -133l-158 133l58 45l100 -85l99 85z" />
    <glyph glyph-name="emdash" unicode="&#x2014;" horiz-adv-x="1000" 
d="M130 278h740v-74h-740v74z" />
    <glyph glyph-name="AE" unicode="&#xc6;" horiz-adv-x="1000" 
d="M510 212h-322l-89 -212h-93l336 754h331l34 -78h-305l94 -225h297l35 -78h-298l123 -295h306l33 -78h-393zM476 290l-124 297l-128 -297h252z" />
    <glyph glyph-name="ordfeminine" unicode="&#xaa;" horiz-adv-x="346" 
d="M174 723c-61 0 -101 -49 -101 -102c0 -55 36 -108 101 -108c67 0 102 50 102 107s-38 103 -102 103zM326 759v-282h-52v39h-2c-26 -31 -62 -47 -105 -47c-90 0 -146 70 -146 148c0 81 55 150 147 150c41 0 79 -18 104 -48h2v40h52z" />
    <glyph glyph-name="Lslash" unicode="&#x141;" horiz-adv-x="375" 
d="M76 0v319l-76 -49v80l76 49v355h84v-300l130 84v-80l-130 -84v-296h208v-78h-292z" />
    <glyph glyph-name="Oslash" unicode="&#xd8;" horiz-adv-x="862" 
d="M189 184l437 436c-52 43 -120 69 -195 69c-173 0 -309 -141 -309 -312c0 -73 25 -140 67 -193zM671 574l-437 -436c54 -46 122 -73 197 -73c171 0 309 142 309 312c0 74 -25 142 -69 197zM42 37l89 89c-58 67 -93 154 -93 250c0 216 178 391 393 391
c95 0 183 -34 251 -91l92 91l46 -45l-92 -91c60 -68 96 -157 96 -255c0 -217 -178 -389 -393 -389c-97 0 -186 35 -255 93l-90 -90z" />
    <glyph glyph-name="OE" unicode="&#x152;" horiz-adv-x="1190" 
d="M729 0v145h-2c-65 -100 -177 -159 -296 -158c-215 0 -393 172 -393 389c0 216 178 391 393 391c119 0 229 -60 296 -161h2v148h394v-78h-310v-224h301v-78h-301v-296h310v-78h-394zM431 689c-173 0 -309 -141 -309 -312c0 -170 138 -312 309 -312s309 142 309 312
c0 171 -136 312 -309 312z" />
    <glyph glyph-name="ordmasculine" unicode="&#xba;" horiz-adv-x="337" 
d="M169 469c-89 0 -161 65 -161 148s71 150 161 150s161 -67 161 -150s-72 -148 -161 -148zM169 723c-64 0 -109 -48 -109 -105c0 -58 45 -105 109 -105s109 47 109 105c0 57 -45 105 -109 105z" />
    <glyph glyph-name="ae" unicode="&#xe6;" horiz-adv-x="843" 
d="M447 286h281c-11 68 -68 123 -138 123c-69 0 -133 -55 -143 -123zM228 223c-50 0 -119 -23 -119 -83c0 -61 67 -79 118 -79c53 0 127 18 127 83c0 61 -79 79 -126 79zM809 218h-370c1 -87 63 -157 154 -157c68 0 112 41 143 97l68 -39c-45 -84 -121 -132 -217 -132
c-70 0 -138 31 -180 93c-39 -68 -99 -93 -176 -93c-94 0 -202 42 -202 151s102 156 196 156c52 0 91 -11 134 -40c-1 93 -33 155 -135 155c-49 0 -97 -14 -144 -30v76c50 15 97 28 149 28c70 0 144 -30 174 -97c37 62 112 97 182 97c151 0 230 -125 224 -265z" />
    <glyph glyph-name="dotlessi" unicode="&#x131;" horiz-adv-x="262" 
d="M171 470v-470h-80v470h80z" />
    <glyph glyph-name="lslash" unicode="&#x142;" horiz-adv-x="258" 
d="M89 0v370l-74 -49v71l74 49v384h80v-330l74 49v-71l-74 -49v-424h-80z" />
    <glyph glyph-name="oslash" unicode="&#xf8;" horiz-adv-x="562" 
d="M143 134l240 240c-27 22 -62 35 -102 35c-99 0 -167 -79 -167 -174c0 -38 11 -73 29 -101zM419 333l-238 -239c26 -21 61 -33 100 -33c99 0 167 78 167 174c0 37 -10 71 -29 98zM20 11l68 68c-34 42 -54 96 -54 155c0 138 109 249 247 249c60 0 115 -21 156 -55l66 66
l39 -38l-67 -67c33 -41 53 -96 53 -155c0 -138 -110 -247 -247 -247c-58 0 -112 20 -154 53l-68 -68z" />
    <glyph glyph-name="oe" unicode="&#x153;" horiz-adv-x="940" 
d="M906 218h-371c1 -87 63 -157 154 -157c68 0 112 41 143 97l68 -39c-45 -84 -121 -132 -217 -132c-77 0 -159 42 -194 112c-41 -72 -126 -112 -208 -112c-137 0 -247 109 -247 247s109 249 247 249c87 -2 170 -43 208 -114c37 73 111 112 192 114c151 0 233 -125 225 -265
zM542 286h281c-11 68 -68 123 -138 123c-69 0 -133 -55 -143 -123zM283 409c-99 0 -167 -79 -167 -174c0 -96 68 -174 167 -174s167 78 167 174c0 95 -68 174 -167 174z" />
    <glyph glyph-name="germandbls" unicode="&#xdf;" horiz-adv-x="577" 
d="M72 0v396h-44v74h44v144c0 53 5 111 39 154c37 48 101 70 159 70c109 0 194 -78 194 -188c0 -60 -30 -119 -84 -146c99 -34 161 -139 161 -241c0 -156 -135 -274 -287 -276v74c112 7 205 90 205 205c0 56 -26 113 -71 148c-38 29 -87 40 -134 44v74c74 -1 130 46 130 122
c0 66 -50 110 -115 110c-43 0 -88 -18 -104 -60c-14 -34 -13 -90 -13 -127v-577h-80z" />
    <glyph glyph-name="onesuperior" unicode="&#xb9;" horiz-adv-x="369" 
d="M195 707h-81l29 52h112v-452h-60v400z" />
    <glyph glyph-name="logicalnot" unicode="&#xac;" 
d="M472 103v192h-406v78h484v-270h-78z" />
    <glyph glyph-name="mu" unicode="&#xb5;" horiz-adv-x="512" 
d="M150 470v-262c0 -79 9 -147 106 -147s106 68 106 147v262h80v-271c0 -125 -47 -212 -186 -212c-34 0 -63 6 -106 47v-298h-80v734h80z" />
    <glyph glyph-name="trademark" unicode="&#x2122;" horiz-adv-x="940" 
d="M905 754v-421h-60v361h-2l-144 -361h-39l-140 361h-2v-361h-60v421h101l121 -303l125 303h100zM377 754v-60h-140v-361h-60v361h-141v60h341z" />
    <glyph glyph-name="Eth" unicode="&#xd0;" horiz-adv-x="678" 
d="M76 0v370h-76v72h76v312h142c113 0 205 -15 294 -91c86 -74 125 -175 125 -287c0 -110 -40 -207 -123 -281c-90 -80 -180 -95 -298 -95h-140zM160 78h61c92 0 169 13 238 78c62 58 94 137 94 221c0 86 -33 169 -98 226c-69 61 -145 73 -234 73h-61v-234h134v-72h-134
v-292z" />
    <glyph glyph-name="onehalf" unicode="&#xbd;" horiz-adv-x="924" 
d="M181 707h-81l29 52h112v-452h-60v400zM627 52h197v-52h-317l229 250c20 22 28 46 28 76c0 50 -39 82 -92 82c-59 0 -93 -35 -93 -88h-60c2 79 65 140 151 140c87 0 154 -55 154 -134c0 -32 -9 -70 -32 -95zM603 767l44 -24l-439 -756l-44 24z" />
    <glyph glyph-name="plusminus" unicode="&#xb1;" 
d="M269 498h78v-153h203v-78h-203v-153h-78v153h-203v78h203v153zM66 0v78h484v-78h-484z" />
    <glyph glyph-name="Thorn" unicode="&#xde;" horiz-adv-x="503" 
d="M160 190v-190h-84v754h84v-140h40c65 0 132 -2 187 -40c56 -39 85 -105 85 -172c0 -61 -25 -123 -72 -162c-51 -42 -116 -50 -179 -50h-61zM160 536v-268h56c93 0 172 28 172 136c0 123 -99 132 -197 132h-31z" />
    <glyph glyph-name="onequarter" unicode="&#xbc;" horiz-adv-x="924" 
d="M764 125h60v-52h-60v-73h-60v73h-245l304 405h1v-353zM704 125v190h-2l-142 -190h144zM181 707h-81l29 52h112v-452h-60v400zM648 767l44 -24l-439 -756l-44 24z" />
    <glyph glyph-name="divide" unicode="&#xf7;" 
d="M66 217v78h484v-78h-484zM308 124c31 0 57 -26 57 -57c0 -32 -26 -57 -57 -57s-57 25 -57 57c0 31 26 57 57 57zM308 502c31 0 57 -26 57 -57c0 -32 -26 -57 -57 -57s-57 25 -57 57c0 31 26 57 57 57z" />
    <glyph glyph-name="brokenbar" unicode="&#xa6;" horiz-adv-x="570" 
d="M324 161v-250h-78v250h78zM324 661v-250h-78v250h78z" />
    <glyph glyph-name="degree" unicode="&#xb0;" horiz-adv-x="400" 
d="M350 617c0 -83 -68 -150 -150 -150c-83 0 -150 67 -150 150c-1 82 67 150 150 150c82 0 150 -68 150 -150zM302 617c0 56 -46 102 -103 102c-56 0 -102 -46 -101 -102c0 -57 45 -102 102 -102c56 0 102 45 102 102z" />
    <glyph glyph-name="thorn" unicode="&#xfe;" horiz-adv-x="577" 
d="M152 825v-422h2c39 52 97 80 162 80c138 0 225 -119 225 -249c0 -134 -85 -247 -226 -247c-64 0 -123 28 -161 79h-2v-330h-80v1089h80zM301 409c-93 0 -153 -81 -153 -169c0 -92 54 -179 154 -179c103 0 157 83 157 178c0 94 -59 170 -158 170z" />
    <glyph glyph-name="threequarters" unicode="&#xbe;" horiz-adv-x="924" 
d="M784 125h60v-52h-60v-73h-60v73h-245l304 405h1v-353zM724 125v190h-2l-142 -190h144zM706 767l44 -24l-439 -756l-44 24zM219 519v52c52 0 91 25 91 70c0 48 -42 74 -80 74c-44 0 -70 -25 -75 -67h-60c8 72 55 119 136 119c79 0 139 -49 139 -124c0 -40 -23 -80 -63 -99
c48 -19 70 -64 70 -111c0 -85 -63 -134 -152 -134c-79 0 -144 50 -145 125h60c0 -46 38 -73 87 -73c53 0 90 36 90 85c0 52 -39 85 -98 83z" />
    <glyph glyph-name="twosuperior" unicode="&#xb2;" horiz-adv-x="369" 
d="M146 359h197v-52h-317l229 250c20 22 28 46 28 76c0 50 -39 82 -92 82c-59 0 -93 -35 -93 -88h-60c2 79 65 140 151 140c87 0 154 -55 154 -134c0 -32 -9 -70 -32 -95z" />
    <glyph glyph-name="registered" unicode="&#xae;" horiz-adv-x="800" 
d="M400 -13c-219 0 -392 173 -392 390s173 390 392 390s392 -173 392 -390s-173 -390 -392 -390zM400 47c179 0 332 146 332 330s-153 330 -332 330s-332 -146 -332 -330s153 -330 332 -330zM457 363l129 -197h-72l-128 197h-72v-197h-60v427h186c77 0 152 -21 152 -113
c0 -84 -59 -115 -135 -117zM314 423h72c53 0 146 -10 146 58c0 44 -58 52 -104 52h-114v-110z" />
    <glyph glyph-name="minus" unicode="&#x2212;" 
d="M66 217v78h484v-78h-484z" />
    <glyph glyph-name="eth" unicode="&#xf0;" horiz-adv-x="561" 
d="M93 785l44 46c67 -43 91 -59 137 -98l138 92l40 -41l-134 -90c49 -48 209 -201 209 -438c0 -188 -136 -268 -246 -268c-138 0 -247 111 -247 247c0 126 96 246 239 246c89 0 136 -45 156 -64c-33 93 -97 172 -169 239l-133 -89l-39 41l130 87c-17 15 -52 45 -125 90z
M115 236c0 -103 75 -174 167 -174c99 0 166 80 166 174c0 92 -66 174 -165 174c-98 0 -168 -76 -168 -174z" />
    <glyph glyph-name="multiply" unicode="&#xd7;" 
d="M66 443l55 55l187 -187l186 187l56 -55l-187 -187l187 -187l-56 -55l-186 187l-187 -187l-55 55l187 187z" />
    <glyph glyph-name="threesuperior" unicode="&#xb3;" horiz-adv-x="369" 
d="M175 519v52c52 0 91 25 91 70c0 48 -42 74 -80 74c-44 0 -70 -25 -75 -67h-60c8 72 55 119 136 119c79 0 139 -49 139 -124c0 -40 -23 -80 -63 -99c48 -19 70 -64 70 -111c0 -85 -63 -134 -152 -134c-79 0 -144 50 -145 125h60c0 -46 38 -73 87 -73c53 0 90 36 90 85
c0 52 -39 85 -98 83z" />
    <glyph glyph-name="copyright" unicode="&#xa9;" horiz-adv-x="800" 
d="M400 -13c-219 0 -392 173 -392 390s173 390 392 390s392 -173 392 -390s-173 -390 -392 -390zM400 47c179 0 332 146 332 330s-153 330 -332 330s-332 -146 -332 -330s153 -330 332 -330zM599 457h-61c-12 55 -58 88 -124 88c-108 0 -156 -85 -156 -163
c0 -92 58 -166 158 -166c66 0 108 34 122 91h61c-12 -94 -93 -151 -183 -151c-132 0 -218 100 -218 224c0 129 82 225 217 225c92 0 166 -55 184 -148z" />
    <glyph glyph-name="Aacute" unicode="&#xc1;" horiz-adv-x="699" 
d="M511 214h-322l-91 -214h-92l348 790l339 -790h-93zM478 292l-126 302l-129 -302h255zM408 1003l84 -38l-153 -154l-50 28z" />
    <glyph glyph-name="Acircumflex" unicode="&#xc2;" horiz-adv-x="699" 
d="M511 214h-322l-91 -214h-92l348 790l339 -790h-93zM478 292l-126 302l-129 -302h255zM193 863l156 133l158 -133l-58 -45l-100 85l-99 -85z" />
    <glyph glyph-name="Adieresis" unicode="&#xc4;" horiz-adv-x="699" 
d="M511 214h-322l-91 -214h-92l348 790l339 -790h-93zM478 292l-126 302l-129 -302h255zM251 964c30 0 54 -24 54 -54s-24 -54 -54 -54s-54 24 -54 54s24 54 54 54zM448 964c30 0 54 -24 54 -54s-24 -54 -54 -54s-54 24 -54 54s24 54 54 54z" />
    <glyph glyph-name="Agrave" unicode="&#xc0;" horiz-adv-x="699" 
d="M511 214h-322l-91 -214h-92l348 790l339 -790h-93zM478 292l-126 302l-129 -302h255zM209 965l84 38l119 -164l-50 -28z" />
    <glyph glyph-name="Aring" unicode="&#xc5;" horiz-adv-x="699" 
d="M511 214h-322l-91 -214h-92l348 790l339 -790h-93zM478 292l-126 302l-129 -302h255zM351 1006c53 0 97 -44 97 -97c0 -54 -43 -98 -97 -98s-98 44 -98 98c0 53 44 97 98 97zM351 956c-26 0 -48 -21 -48 -47s22 -48 48 -48s47 22 47 48s-21 47 -47 47z" />
    <glyph glyph-name="Atilde" unicode="&#xc3;" horiz-adv-x="699" 
d="M511 214h-322l-91 -214h-92l348 790l339 -790h-93zM478 292l-126 302l-129 -302h255zM224 847l-49 39c23 40 52 79 102 79c30 0 57 -11 81 -23c25 -11 46 -23 64 -23c28 0 44 26 56 48l47 -38c-18 -44 -57 -81 -106 -81c-24 0 -50 11 -75 23c-25 11 -49 22 -70 22
c-28 0 -40 -24 -50 -46z" />
    <glyph glyph-name="Ccedilla" unicode="&#xc7;" horiz-adv-x="717" 
d="M651 693v-104c-60 62 -143 100 -230 100c-168 0 -304 -146 -304 -312s137 -312 306 -312c85 0 168 40 228 100v-104c-65 -47 -145 -74 -225 -74c-213 0 -393 173 -393 387c0 216 177 393 393 393c84 0 158 -24 225 -74zM444 -53l-114 -146l-56 28l96 148z" />
    <glyph glyph-name="Eacute" unicode="&#xc9;" horiz-adv-x="534" 
d="M76 0v754h391v-78h-307v-224h298v-78h-298v-296h307v-78h-391zM325 1003l84 -38l-153 -154l-50 28z" />
    <glyph glyph-name="Ecircumflex" unicode="&#xca;" horiz-adv-x="534" 
d="M76 0v754h391v-78h-307v-224h298v-78h-298v-296h307v-78h-391zM110 863l156 133l158 -133l-58 -45l-100 85l-99 -85z" />
    <glyph glyph-name="Edieresis" unicode="&#xcb;" horiz-adv-x="534" 
d="M76 0v754h391v-78h-307v-224h298v-78h-298v-296h307v-78h-391zM169 964c30 0 54 -24 54 -54s-24 -54 -54 -54s-54 24 -54 54s24 54 54 54zM366 964c30 0 54 -24 54 -54s-24 -54 -54 -54s-54 24 -54 54s24 54 54 54z" />
    <glyph glyph-name="Egrave" unicode="&#xc8;" horiz-adv-x="534" 
d="M76 0v754h391v-78h-307v-224h298v-78h-298v-296h307v-78h-391zM141 965l84 38l119 -164l-50 -28z" />
    <glyph glyph-name="Iacute" unicode="&#xcd;" horiz-adv-x="239" 
d="M162 754v-754h-84v754h84zM162 1003l84 -38l-153 -154l-50 28z" />
    <glyph glyph-name="Icircumflex" unicode="&#xce;" horiz-adv-x="239" 
d="M162 754v-754h-84v754h84zM-37 863l156 133l158 -133l-58 -45l-100 85l-99 -85z" />
    <glyph glyph-name="Idieresis" unicode="&#xcf;" horiz-adv-x="239" 
d="M162 754v-754h-84v754h84zM21 964c30 0 54 -24 54 -54s-24 -54 -54 -54s-54 24 -54 54s24 54 54 54zM218 964c30 0 54 -24 54 -54s-24 -54 -54 -54s-54 24 -54 54s24 54 54 54z" />
    <glyph glyph-name="Igrave" unicode="&#xcc;" horiz-adv-x="239" 
d="M162 754v-754h-84v754h84zM-7 965l84 38l119 -164l-50 -28z" />
    <glyph glyph-name="Ntilde" unicode="&#xd1;" horiz-adv-x="834" 
d="M81 0v786l588 -616v584h84v-788l-588 615v-581h-84zM291 847l-49 39c23 40 52 79 102 79c30 0 57 -11 81 -23c25 -11 46 -23 64 -23c28 0 44 26 56 48l47 -38c-18 -44 -57 -81 -106 -81c-24 0 -50 11 -75 23c-25 11 -49 22 -70 22c-28 0 -40 -24 -50 -46z" />
    <glyph glyph-name="Oacute" unicode="&#xd3;" horiz-adv-x="862" 
d="M431 767c215 0 393 -175 393 -391c0 -217 -178 -389 -393 -389s-393 172 -393 389c0 216 178 391 393 391zM431 689c-173 0 -309 -141 -309 -312c0 -170 138 -312 309 -312s309 142 309 312c0 171 -136 312 -309 312zM489 1003l84 -38l-153 -154l-50 28z" />
    <glyph glyph-name="Ocircumflex" unicode="&#xd4;" horiz-adv-x="862" 
d="M431 767c215 0 393 -175 393 -391c0 -217 -178 -389 -393 -389s-393 172 -393 389c0 216 178 391 393 391zM431 689c-173 0 -309 -141 -309 -312c0 -170 138 -312 309 -312s309 142 309 312c0 171 -136 312 -309 312zM274 863l156 133l158 -133l-58 -45l-100 85l-99 -85z
" />
    <glyph glyph-name="Odieresis" unicode="&#xd6;" horiz-adv-x="862" 
d="M431 767c215 0 393 -175 393 -391c0 -217 -178 -389 -393 -389s-393 172 -393 389c0 216 178 391 393 391zM431 689c-173 0 -309 -141 -309 -312c0 -170 138 -312 309 -312s309 142 309 312c0 171 -136 312 -309 312zM333 964c30 0 54 -24 54 -54s-24 -54 -54 -54
s-54 24 -54 54s24 54 54 54zM530 964c30 0 54 -24 54 -54s-24 -54 -54 -54s-54 24 -54 54s24 54 54 54z" />
    <glyph glyph-name="Ograve" unicode="&#xd2;" horiz-adv-x="862" 
d="M431 767c215 0 393 -175 393 -391c0 -217 -178 -389 -393 -389s-393 172 -393 389c0 216 178 391 393 391zM431 689c-173 0 -309 -141 -309 -312c0 -170 138 -312 309 -312s309 142 309 312c0 171 -136 312 -309 312zM290 965l84 38l119 -164l-50 -28z" />
    <glyph glyph-name="Otilde" unicode="&#xd5;" horiz-adv-x="862" 
d="M431 767c215 0 393 -175 393 -391c0 -217 -178 -389 -393 -389s-393 172 -393 389c0 216 178 391 393 391zM431 689c-173 0 -309 -141 -309 -312c0 -170 138 -312 309 -312s309 142 309 312c0 171 -136 312 -309 312zM305 847l-49 39c23 40 52 79 102 79
c30 0 57 -11 81 -23c25 -11 46 -23 64 -23c28 0 44 26 56 48l47 -38c-18 -44 -57 -81 -106 -81c-24 0 -50 11 -75 23c-25 11 -49 22 -70 22c-28 0 -40 -24 -50 -46z" />
    <glyph glyph-name="Scaron" unicode="&#x160;" horiz-adv-x="559" 
d="M485 650l-67 -43c-30 52 -66 82 -130 82c-67 0 -125 -48 -125 -117c0 -65 67 -95 118 -118l50 -22c98 -43 181 -92 181 -212c0 -132 -106 -233 -237 -233c-121 0 -211 78 -235 195l82 23c11 -77 70 -140 151 -140s155 62 155 147c0 88 -69 118 -139 150l-46 20
c-88 40 -164 85 -164 193c0 117 99 192 211 192c84 0 155 -43 195 -117zM447 951l-156 -133l-158 133l58 45l100 -85l99 85z" />
    <glyph glyph-name="Uacute" unicode="&#xda;" horiz-adv-x="685" 
d="M158 754v-449c0 -56 -2 -120 33 -168c33 -46 97 -72 152 -72c54 0 113 25 148 67c40 48 37 114 37 173v449h84v-472c0 -82 -6 -147 -66 -209c-52 -56 -127 -86 -203 -86c-71 0 -144 27 -195 77c-66 63 -74 132 -74 218v472h84zM401 1003l84 -38l-153 -154l-50 28z" />
    <glyph glyph-name="Ucircumflex" unicode="&#xdb;" horiz-adv-x="685" 
d="M158 754v-449c0 -56 -2 -120 33 -168c33 -46 97 -72 152 -72c54 0 113 25 148 67c40 48 37 114 37 173v449h84v-472c0 -82 -6 -147 -66 -209c-52 -56 -127 -86 -203 -86c-71 0 -144 27 -195 77c-66 63 -74 132 -74 218v472h84zM186 863l156 133l158 -133l-58 -45l-100 85
l-99 -85z" />
    <glyph glyph-name="Udieresis" unicode="&#xdc;" horiz-adv-x="685" 
d="M158 754v-449c0 -56 -2 -120 33 -168c33 -46 97 -72 152 -72c54 0 113 25 148 67c40 48 37 114 37 173v449h84v-472c0 -82 -6 -147 -66 -209c-52 -56 -127 -86 -203 -86c-71 0 -144 27 -195 77c-66 63 -74 132 -74 218v472h84zM244 964c30 0 54 -24 54 -54
s-24 -54 -54 -54s-54 24 -54 54s24 54 54 54zM441 964c30 0 54 -24 54 -54s-24 -54 -54 -54s-54 24 -54 54s24 54 54 54z" />
    <glyph glyph-name="Ugrave" unicode="&#xd9;" horiz-adv-x="685" 
d="M158 754v-449c0 -56 -2 -120 33 -168c33 -46 97 -72 152 -72c54 0 113 25 148 67c40 48 37 114 37 173v449h84v-472c0 -82 -6 -147 -66 -209c-52 -56 -127 -86 -203 -86c-71 0 -144 27 -195 77c-66 63 -74 132 -74 218v472h84zM202 965l84 38l119 -164l-50 -28z" />
    <glyph glyph-name="Yacute" unicode="&#xdd;" horiz-adv-x="593" 
d="M255 324l-247 430h97l192 -336l192 336h97l-247 -430v-324h-84v324zM375 1003l84 -38l-153 -154l-50 28z" />
    <glyph glyph-name="Ydieresis" unicode="&#x178;" horiz-adv-x="593" 
d="M255 324l-247 430h97l192 -336l192 336h97l-247 -430v-324h-84v324zM210 964c30 0 54 -24 54 -54s-24 -54 -54 -54s-54 24 -54 54s24 54 54 54zM407 964c30 0 54 -24 54 -54s-24 -54 -54 -54s-54 24 -54 54s24 54 54 54z" />
    <glyph glyph-name="Zcaron" unicode="&#x17d;" horiz-adv-x="586" 
d="M153 78h401v-78h-540l411 676h-359v78h499zM462 951l-156 -133l-158 133l58 45l100 -85l99 85z" />
    <glyph glyph-name="aacute" unicode="&#xe1;" horiz-adv-x="577" 
d="M271 409c-93 0 -153 -81 -153 -169c0 -92 54 -179 154 -179c103 0 157 83 157 178c0 94 -59 170 -158 170zM505 470v-470h-80v65h-2c-41 -52 -96 -78 -162 -78c-138 0 -225 117 -225 247c0 134 85 249 226 249c64 0 122 -30 161 -80h2v67h80zM347 744l84 -38l-153 -154
l-50 28z" />
    <glyph glyph-name="acircumflex" unicode="&#xe2;" horiz-adv-x="577" 
d="M271 409c-93 0 -153 -81 -153 -169c0 -92 54 -179 154 -179c103 0 157 83 157 178c0 94 -59 170 -158 170zM505 470v-470h-80v65h-2c-41 -52 -96 -78 -162 -78c-138 0 -225 117 -225 247c0 134 85 249 226 249c64 0 122 -30 161 -80h2v67h80zM132 604l156 133l158 -133
l-58 -45l-100 85l-99 -85z" />
    <glyph glyph-name="adieresis" unicode="&#xe4;" horiz-adv-x="577" 
d="M271 409c-93 0 -153 -81 -153 -169c0 -92 54 -179 154 -179c103 0 157 83 157 178c0 94 -59 170 -158 170zM505 470v-470h-80v65h-2c-41 -52 -96 -78 -162 -78c-138 0 -225 117 -225 247c0 134 85 249 226 249c64 0 122 -30 161 -80h2v67h80zM190 705c30 0 54 -24 54 -54
s-24 -54 -54 -54s-54 24 -54 54s24 54 54 54zM387 705c30 0 54 -24 54 -54s-24 -54 -54 -54s-54 24 -54 54s24 54 54 54z" />
    <glyph glyph-name="agrave" unicode="&#xe0;" horiz-adv-x="577" 
d="M271 409c-93 0 -153 -81 -153 -169c0 -92 54 -179 154 -179c103 0 157 83 157 178c0 94 -59 170 -158 170zM505 470v-470h-80v65h-2c-41 -52 -96 -78 -162 -78c-138 0 -225 117 -225 247c0 134 85 249 226 249c64 0 122 -30 161 -80h2v67h80zM148 706l84 38l119 -164
l-50 -28z" />
    <glyph glyph-name="aring" unicode="&#xe5;" horiz-adv-x="577" 
d="M271 409c-93 0 -153 -81 -153 -169c0 -92 54 -179 154 -179c103 0 157 83 157 178c0 94 -59 170 -158 170zM505 470v-470h-80v65h-2c-41 -52 -96 -78 -162 -78c-138 0 -225 117 -225 247c0 134 85 249 226 249c64 0 122 -30 161 -80h2v67h80zM290 747c53 0 97 -44 97 -97
c0 -54 -43 -98 -97 -98s-98 44 -98 98c0 53 44 97 98 97zM290 697c-26 0 -48 -21 -48 -47s22 -48 48 -48s47 22 47 48s-21 47 -47 47z" />
    <glyph glyph-name="atilde" unicode="&#xe3;" horiz-adv-x="577" 
d="M271 409c-93 0 -153 -81 -153 -169c0 -92 54 -179 154 -179c103 0 157 83 157 178c0 94 -59 170 -158 170zM505 470v-470h-80v65h-2c-41 -52 -96 -78 -162 -78c-138 0 -225 117 -225 247c0 134 85 249 226 249c64 0 122 -30 161 -80h2v67h80zM163 588l-49 39
c23 40 52 79 102 79c30 0 57 -11 81 -23c25 -11 46 -23 64 -23c28 0 44 26 56 48l47 -38c-18 -44 -57 -81 -106 -81c-24 0 -50 11 -75 23c-25 11 -49 22 -70 22c-28 0 -40 -24 -50 -46z" />
    <glyph glyph-name="ccedilla" unicode="&#xe7;" horiz-adv-x="476" 
d="M425 436v-106h-2c-37 47 -83 79 -146 79c-97 0 -166 -80 -166 -174c0 -93 64 -174 162 -174c67 0 114 30 153 81h2v-107c-46 -31 -93 -48 -149 -48c-142 0 -250 106 -250 248c0 140 113 248 251 248c51 0 103 -17 145 -47zM324 -53l-114 -146l-56 28l96 148z" />
    <glyph glyph-name="eacute" unicode="&#xe9;" horiz-adv-x="519" 
d="M485 218h-369c1 -87 63 -157 154 -157c68 0 112 41 143 97l68 -39c-45 -84 -121 -132 -217 -132c-140 0 -230 107 -230 242c0 139 81 254 228 254c151 0 231 -125 223 -265zM120 286h281c-11 68 -68 123 -138 123c-69 0 -133 -55 -143 -123zM318 744l84 -38l-153 -154
l-50 28z" />
    <glyph glyph-name="ecircumflex" unicode="&#xea;" horiz-adv-x="519" 
d="M485 218h-369c1 -87 63 -157 154 -157c68 0 112 41 143 97l68 -39c-45 -84 -121 -132 -217 -132c-140 0 -230 107 -230 242c0 139 81 254 228 254c151 0 231 -125 223 -265zM120 286h281c-11 68 -68 123 -138 123c-69 0 -133 -55 -143 -123zM103 604l156 133l158 -133
l-58 -45l-100 85l-99 -85z" />
    <glyph glyph-name="edieresis" unicode="&#xeb;" horiz-adv-x="519" 
d="M485 218h-369c1 -87 63 -157 154 -157c68 0 112 41 143 97l68 -39c-45 -84 -121 -132 -217 -132c-140 0 -230 107 -230 242c0 139 81 254 228 254c151 0 231 -125 223 -265zM120 286h281c-11 68 -68 123 -138 123c-69 0 -133 -55 -143 -123zM161 705c30 0 54 -24 54 -54
s-24 -54 -54 -54s-54 24 -54 54s24 54 54 54zM358 705c30 0 54 -24 54 -54s-24 -54 -54 -54s-54 24 -54 54s24 54 54 54z" />
    <glyph glyph-name="egrave" unicode="&#xe8;" horiz-adv-x="519" 
d="M485 218h-369c1 -87 63 -157 154 -157c68 0 112 41 143 97l68 -39c-45 -84 -121 -132 -217 -132c-140 0 -230 107 -230 242c0 139 81 254 228 254c151 0 231 -125 223 -265zM120 286h281c-11 68 -68 123 -138 123c-69 0 -133 -55 -143 -123zM119 706l84 38l119 -164
l-50 -28z" />
    <glyph glyph-name="iacute" unicode="&#xed;" horiz-adv-x="262" 
d="M171 470v-470h-80v470h80zM174 744l84 -38l-153 -154l-50 28z" />
    <glyph glyph-name="icircumflex" unicode="&#xee;" horiz-adv-x="262" 
d="M171 470v-470h-80v470h80zM-26 604l156 133l158 -133l-58 -45l-100 85l-99 -85z" />
    <glyph glyph-name="idieresis" unicode="&#xef;" horiz-adv-x="262" 
d="M171 470v-470h-80v470h80zM33 705c30 0 54 -24 54 -54s-24 -54 -54 -54s-54 24 -54 54s24 54 54 54zM230 705c30 0 54 -24 54 -54s-24 -54 -54 -54s-54 24 -54 54s24 54 54 54z" />
    <glyph glyph-name="igrave" unicode="&#xec;" horiz-adv-x="262" 
d="M171 470v-470h-80v470h80zM5 706l84 38l119 -164l-50 -28z" />
    <glyph glyph-name="ntilde" unicode="&#xf1;" horiz-adv-x="528" 
d="M156 470v-57h2c33 45 76 70 134 70c130 0 160 -94 160 -204v-279h-80v265c0 76 -6 144 -99 144c-110 0 -117 -102 -117 -186v-223h-80v470h80zM138 588l-49 39c23 40 52 79 102 79c30 0 57 -11 81 -23c25 -11 46 -23 64 -23c28 0 44 26 56 48l47 -38
c-18 -44 -57 -81 -106 -81c-24 0 -50 11 -75 23c-25 11 -49 22 -70 22c-28 0 -40 -24 -50 -46z" />
    <glyph glyph-name="oacute" unicode="&#xf3;" horiz-adv-x="562" 
d="M281 -13c-137 0 -247 109 -247 247s109 249 247 249s247 -111 247 -249s-110 -247 -247 -247zM281 409c-99 0 -167 -79 -167 -174c0 -96 68 -174 167 -174s167 78 167 174c0 95 -68 174 -167 174zM339 744l84 -38l-153 -154l-50 28z" />
    <glyph glyph-name="ocircumflex" unicode="&#xf4;" horiz-adv-x="562" 
d="M281 -13c-137 0 -247 109 -247 247s109 249 247 249s247 -111 247 -249s-110 -247 -247 -247zM281 409c-99 0 -167 -79 -167 -174c0 -96 68 -174 167 -174s167 78 167 174c0 95 -68 174 -167 174zM124 604l156 133l158 -133l-58 -45l-100 85l-99 -85z" />
    <glyph glyph-name="odieresis" unicode="&#xf6;" horiz-adv-x="562" 
d="M281 -13c-137 0 -247 109 -247 247s109 249 247 249s247 -111 247 -249s-110 -247 -247 -247zM281 409c-99 0 -167 -79 -167 -174c0 -96 68 -174 167 -174s167 78 167 174c0 95 -68 174 -167 174zM183 705c30 0 54 -24 54 -54s-24 -54 -54 -54s-54 24 -54 54s24 54 54 54
zM380 705c30 0 54 -24 54 -54s-24 -54 -54 -54s-54 24 -54 54s24 54 54 54z" />
    <glyph glyph-name="ograve" unicode="&#xf2;" horiz-adv-x="562" 
d="M281 -13c-137 0 -247 109 -247 247s109 249 247 249s247 -111 247 -249s-110 -247 -247 -247zM281 409c-99 0 -167 -79 -167 -174c0 -96 68 -174 167 -174s167 78 167 174c0 95 -68 174 -167 174zM140 706l84 38l119 -164l-50 -28z" />
    <glyph glyph-name="otilde" unicode="&#xf5;" horiz-adv-x="562" 
d="M281 -13c-137 0 -247 109 -247 247s109 249 247 249s247 -111 247 -249s-110 -247 -247 -247zM281 409c-99 0 -167 -79 -167 -174c0 -96 68 -174 167 -174s167 78 167 174c0 95 -68 174 -167 174zM155 588l-49 39c23 40 52 79 102 79c30 0 57 -11 81 -23
c25 -11 46 -23 64 -23c28 0 44 26 56 48l47 -38c-18 -44 -57 -81 -106 -81c-24 0 -50 11 -75 23c-25 11 -49 22 -70 22c-28 0 -40 -24 -50 -46z" />
    <glyph glyph-name="scaron" unicode="&#x161;" horiz-adv-x="399" 
d="M333 396l-67 -35c-11 25 -35 48 -64 48c-28 0 -58 -22 -58 -52c0 -43 54 -59 109 -82s109 -56 109 -135c0 -89 -72 -153 -159 -153c-79 0 -141 45 -166 119l71 30c20 -44 43 -75 96 -75c43 0 76 29 76 72c0 105 -212 69 -212 217c0 79 64 133 140 133
c54 0 104 -38 125 -87zM357 692l-156 -133l-158 133l58 45l100 -85l99 85z" />
    <glyph glyph-name="uacute" unicode="&#xfa;" horiz-adv-x="512" 
d="M150 470v-262c0 -79 9 -147 106 -147s106 68 106 147v262h80v-271c0 -125 -47 -212 -186 -212s-186 87 -186 212v271h80zM314 744l84 -38l-153 -154l-50 28z" />
    <glyph glyph-name="ucircumflex" unicode="&#xfb;" horiz-adv-x="512" 
d="M150 470v-262c0 -79 9 -147 106 -147s106 68 106 147v262h80v-271c0 -125 -47 -212 -186 -212s-186 87 -186 212v271h80zM99 604l156 133l158 -133l-58 -45l-100 85l-99 -85z" />
    <glyph glyph-name="udieresis" unicode="&#xfc;" horiz-adv-x="512" 
d="M150 470v-262c0 -79 9 -147 106 -147s106 68 106 147v262h80v-271c0 -125 -47 -212 -186 -212s-186 87 -186 212v271h80zM158 705c30 0 54 -24 54 -54s-24 -54 -54 -54s-54 24 -54 54s24 54 54 54zM355 705c30 0 54 -24 54 -54s-24 -54 -54 -54s-54 24 -54 54
s24 54 54 54z" />
    <glyph glyph-name="ugrave" unicode="&#xf9;" horiz-adv-x="512" 
d="M150 470v-262c0 -79 9 -147 106 -147s106 68 106 147v262h80v-271c0 -125 -47 -212 -186 -212s-186 87 -186 212v271h80zM115 706l84 38l119 -164l-50 -28z" />
    <glyph glyph-name="yacute" unicode="&#xfd;" horiz-adv-x="498" 
d="M214 44l-216 426h93l166 -337l152 337h91l-347 -734h-91zM327 744l84 -38l-153 -154l-50 28z" />
    <glyph glyph-name="ydieresis" unicode="&#xff;" horiz-adv-x="498" 
d="M214 44l-216 426h93l166 -337l152 337h91l-347 -734h-91zM156 705c30 0 54 -24 54 -54s-24 -54 -54 -54s-54 24 -54 54s24 54 54 54zM353 705c30 0 54 -24 54 -54s-24 -54 -54 -54s-54 24 -54 54s24 54 54 54z" />
    <glyph glyph-name="zcaron" unicode="&#x17e;" horiz-adv-x="519" 
d="M172 74h324v-74h-486l339 396h-276v74h437zM432 692l-156 -133l-158 133l58 45l100 -85l99 85z" />
    <glyph glyph-name="Delta" unicode="&#x2206;" horiz-adv-x="715" 
d="M34 0v54l280 718h91l276 -717v-55h-647zM114 63h483l-164 420c-20 57 -61 152 -75 201h-4c-10 -39 -47 -126 -67 -184z" />
    <glyph glyph-name="Omega" unicode="&#x2126;" horiz-adv-x="800" 
d="M222 64v3c-79 67 -151 183 -151 336c0 212 144 360 332 360c198 0 325 -169 325 -356c0 -158 -77 -279 -153 -340v-3h168v-64h-264v47c86 54 170 173 170 346c0 142 -84 306 -247 306c-154 0 -252 -138 -252 -308c0 -163 84 -291 170 -344v-47h-265v64h167z" />
    <glyph glyph-name="uni03BC" unicode="&#x3bc;" horiz-adv-x="512" 
d="M150 470v-262c0 -79 9 -147 106 -147s106 68 106 147v262h80v-271c0 -125 -47 -212 -186 -212c-34 0 -63 6 -106 47v-298h-80v734h80z" />
    <glyph glyph-name="pi" unicode="&#x3c0;" horiz-adv-x="628" 
d="M599 492h-91v-332c0 -91 8 -131 17 -160h-76c-11 17 -19 62 -19 153v339h-204c-7 -141 -41 -392 -82 -492h-77c42 115 75 346 81 492c-71 0 -102 -5 -125 -14l-13 52c28 17 73 29 157 29h440z" />
    <glyph glyph-name="Euro" unicode="&#x20ac;" 
d="M567 715v-83c-33 32 -90 59 -169 59c-128 0 -192 -91 -206 -208h327l-23 -64h-313c0 -11 -1 -27 -1 -40c0 -16 1 -31 1 -42h283l-23 -64h-251c18 -135 89 -212 207 -212c78 0 131 27 168 60v-84c-27 -24 -90 -49 -179 -49c-153 0 -253 90 -279 285h-80l23 64h51
c-1 10 -2 28 -2 42s1 29 1 40h-73l23 64h56c23 162 105 283 281 283c84 0 148 -27 178 -51z" />
    <glyph glyph-name="afii61289" unicode="&#x2113;" horiz-adv-x="533" 
d="M469 161l38 -33c-48 -90 -119 -136 -205 -136c-125 0 -176 94 -181 200v13c-20 -15 -42 -34 -64 -51l-24 46c31 26 61 49 87 74v296c0 197 87 259 167 259c93 0 136 -79 136 -175c0 -136 -91 -266 -229 -397v-34c1 -120 60 -169 123 -169c71 0 125 58 152 107zM194 578
v-245c98 104 174 211 174 319c0 70 -21 118 -81 118c-41 0 -93 -47 -93 -192z" />
    <glyph glyph-name="estimated" unicode="&#x212e;" horiz-adv-x="940" 
d="M903 366h-702c-3 0 -5 -1 -5 -5v-212c0 -9 3 -17 9 -24c68 -70 161 -115 265 -115c112 0 211 50 279 129h63c-78 -91 -203 -151 -343 -151c-239 0 -433 174 -433 388c0 216 194 391 433 391c240 0 434 -175 434 -391v-10zM744 394v213c0 10 -4 19 -11 26
c-68 67 -160 110 -263 110c-102 0 -196 -45 -264 -114c-7 -7 -10 -16 -10 -26v-209c0 -3 2 -7 5 -7h538c4 0 5 4 5 7z" />
    <glyph glyph-name="partialdiff" unicode="&#x2202;" horiz-adv-x="601" 
d="M112 726l-28 56c36 28 94 60 183 60c143 0 278 -132 278 -407c0 -247 -97 -444 -287 -444c-144 0 -211 128 -211 249c0 167 110 274 234 274c104 0 168 -75 185 -108h1c2 13 2 36 2 49c0 195 -97 323 -209 323c-69 0 -118 -27 -148 -52zM265 56h1c107 0 176 131 191 273
c-16 48 -76 122 -164 122c-92 0 -169 -94 -169 -210c0 -106 56 -185 141 -185z" />
    <glyph glyph-name="product" unicode="&#x220f;" horiz-adv-x="771" 
d="M741 681h-122v-785h-76v785h-316v-785h-76v785h-123v70h713v-70z" />
    <glyph glyph-name="summation" unicode="&#x2211;" horiz-adv-x="612" 
d="M586 -104h-561v52l299 374l-286 375v54h531v-67h-422v-4l267 -347l-288 -360v-4h460v-73z" />
    <glyph glyph-name="uni2219" unicode="&#x2219;" horiz-adv-x="308" 
d="M154 311c31 0 56 -25 56 -55c0 -31 -25 -57 -56 -57s-56 26 -56 57c0 30 25 55 56 55z" />
    <glyph glyph-name="radical" unicode="&#x221a;" horiz-adv-x="628" 
d="M628 892l-245 -1054h-70l-177 501l-82 -31l-17 48l147 57l144 -408c7 -25 14 -55 19 -76h1c3 20 9 50 15 76l206 887h59z" />
    <glyph glyph-name="infinity" unicode="&#x221e;" horiz-adv-x="850" 
d="M794 313v-2c0 -105 -80 -172 -166 -172c-70 0 -125 44 -202 131c-58 -66 -118 -131 -207 -131c-88 0 -163 73 -163 169c0 99 73 172 171 172c82 0 145 -64 203 -132c58 64 114 132 206 132c95 -1 158 -69 158 -167zM226 188h1c71 0 126 70 172 118
c-50 59 -100 126 -180 126c-70 0 -110 -59 -110 -126c0 -65 47 -118 117 -118zM630 432h-1c-74 0 -134 -82 -173 -121c74 -80 117 -123 176 -123c70 0 110 62 110 120c0 78 -48 124 -112 124z" />
    <glyph glyph-name="integral" unicode="&#x222b;" horiz-adv-x="388" 
d="M371 902l-13 -54c-10 6 -27 12 -41 12c-18 0 -41 -7 -56 -26c-28 -32 -38 -90 -38 -193c0 -167 15 -368 15 -542c0 -117 -23 -180 -47 -217s-65 -54 -107 -54c-28 0 -58 10 -71 18l14 56c10 -5 29 -14 51 -14c18 0 38 9 51 25c22 28 39 76 39 187c0 175 -16 380 -16 549
c0 117 16 184 59 227c27 29 64 41 100 41c23 0 49 -8 60 -15z" />
    <glyph glyph-name="approxequal" unicode="&#x2248;" horiz-adv-x="622" 
d="M537 464l32 -28c-29 -57 -73 -103 -140 -103c-46 0 -77 17 -130 47c-34 19 -67 37 -104 37c-52 0 -82 -39 -110 -82l-34 28c34 64 88 103 151 103c54 0 93 -29 124 -45c39 -21 65 -38 105 -38c46 0 75 28 106 81zM537 279l32 -29c-29 -56 -73 -102 -141 -102
c-45 0 -76 17 -129 47c-35 19 -67 37 -104 37c-52 0 -83 -40 -110 -83l-34 29c34 64 88 103 151 103c54 0 93 -29 124 -45c37 -19 64 -38 106 -38c45 0 73 27 105 81z" />
    <glyph glyph-name="notequal" unicode="&#x2260;" horiz-adv-x="622" 
d="M440 546l-50 -109h175v-51h-196l-75 -161h271v-51h-292l-60 -130l-41 19l52 111h-168v51h189l75 161h-264v51h284l60 128z" />
    <glyph glyph-name="lessequal" unicode="&#x2264;" horiz-adv-x="622" 
d="M562 101l-499 246v54l499 246v-61l-444 -210v-2l444 -212v-61zM565 4h-509v52h509v-52z" />
    <glyph glyph-name="greaterequal" unicode="&#x2265;" horiz-adv-x="622" 
d="M64 647l499 -246v-54l-499 -246v61l443 211v2l-443 211v61zM564 4h-507v52h507v-52z" />
    <glyph glyph-name="lozenge" unicode="&#x25ca;" horiz-adv-x="628" 
d="M567 375l-223 -425h-63l-221 425l223 426h63zM496 373l-161 308c-8 17 -16 40 -21 55h-2c-5 -17 -12 -36 -22 -55l-159 -304l162 -309c9 -22 16 -41 19 -54h4c4 13 13 39 20 53z" />
    <glyph glyph-name="uni00A0" unicode="&#xa0;" horiz-adv-x="308" 
 />
    <glyph glyph-name="uni00AD" unicode="&#xad;" horiz-adv-x="208" 
d="M2 278h205v-74h-205v74z" />
    <glyph glyph-name="uni02C9" unicode="&#x2c9;" horiz-adv-x="499" 
d="M79 682h342v-68h-342v68z" />
    <glyph glyph-name="uni03A9" unicode="&#x3a9;" horiz-adv-x="800" 
d="M222 64v3c-79 67 -151 183 -151 336c0 212 144 360 332 360c198 0 325 -169 325 -356c0 -158 -77 -279 -153 -340v-3h168v-64h-264v47c86 54 170 173 170 346c0 142 -84 306 -247 306c-154 0 -252 -138 -252 -308c0 -163 84 -291 170 -344v-47h-265v64h167z" />
    <glyph glyph-name="uni2215" unicode="&#x2215;" horiz-adv-x="161" 
d="M278 767l44 -24l-439 -756l-44 24z" />
    <hkern u1="&#x2019;" u2="&#x2019;" k="20" />
    <hkern u1="T" u2="&#xfc;" k="30" />
    <hkern u1="T" u2="&#x161;" k="19" />
    <hkern u1="T" u2="&#xf2;" k="50" />
    <hkern u1="T" u2="&#xf6;" k="50" />
    <hkern u1="T" u2="&#xec;" k="-15" />
    <hkern u1="T" u2="&#xee;" k="-6" />
    <hkern u1="T" u2="&#xed;" k="15" />
    <hkern u1="T" u2="&#xe8;" k="75" />
    <hkern u1="T" u2="&#xeb;" k="50" />
    <hkern u1="T" u2="&#xea;" k="75" />
    <hkern u1="T" u2="&#xe3;" k="50" />
    <hkern u1="T" u2="&#xe5;" k="50" />
    <hkern u1="T" u2="&#xe0;" k="50" />
    <hkern u1="T" u2="&#xe4;" k="25" />
    <hkern u1="T" u2="&#xe2;" k="50" />
    <hkern u1="V" u2="&#xf6;" k="40" />
    <hkern u1="V" u2="&#xf4;" k="60" />
    <hkern u1="V" u2="&#xee;" k="-4" />
    <hkern u1="V" u2="&#xe8;" k="40" />
    <hkern u1="V" u2="&#xeb;" k="40" />
    <hkern u1="V" u2="&#xea;" k="40" />
    <hkern u1="V" u2="&#xe3;" k="40" />
    <hkern u1="V" u2="&#xe5;" k="40" />
    <hkern u1="V" u2="&#xe0;" k="40" />
    <hkern u1="V" u2="&#xe4;" k="40" />
    <hkern u1="V" u2="&#xe2;" k="40" />
    <hkern u1="W" u2="&#xfc;" k="30" />
    <hkern u1="W" u2="&#xf6;" k="75" />
    <hkern u1="W" u2="&#xea;" k="75" />
    <hkern u1="W" u2="&#xe4;" k="60" />
    <hkern u1="Y" u2="&#xfc;" k="60" />
    <hkern u1="Y" u2="&#xf6;" k="75" />
    <hkern u1="&#x2018;" u2="&#x2018;" k="20" />
    <hkern g1="A,Aacute,Acircumflex,Adieresis,Agrave,Aring,Atilde"
	g2="T"
	k="80" />
    <hkern g1="A,Aacute,Acircumflex,Adieresis,Agrave,Aring,Atilde"
	g2="v"
	k="40" />
    <hkern g1="A,Aacute,Acircumflex,Adieresis,Agrave,Aring,Atilde"
	g2="V"
	k="100" />
    <hkern g1="A,Aacute,Acircumflex,Adieresis,Agrave,Aring,Atilde"
	g2="w"
	k="40" />
    <hkern g1="A,Aacute,Acircumflex,Adieresis,Agrave,Aring,Atilde"
	g2="W"
	k="100" />
    <hkern g1="A,Aacute,Acircumflex,Adieresis,Agrave,Aring,Atilde"
	g2="y,yacute,ydieresis"
	k="40" />
    <hkern g1="A,Aacute,Acircumflex,Adieresis,Agrave,Aring,Atilde"
	g2="Y,Yacute,Ydieresis"
	k="100" />
    <hkern g1="A,Aacute,Acircumflex,Adieresis,Agrave,Aring,Atilde"
	g2="quoteright"
	k="80" />
    <hkern g1="f,fi,fl"
	g2="quoteright"
	k="-20" />
    <hkern g1="F"
	g2="A,AE,Aacute,Acircumflex,Adieresis,Agrave,Aring,Atilde"
	k="80" />
    <hkern g1="F"
	g2="comma"
	k="130" />
    <hkern g1="F"
	g2="period"
	k="130" />
    <hkern g1="L,Lslash"
	g2="T"
	k="80" />
    <hkern g1="L,Lslash"
	g2="V"
	k="80" />
    <hkern g1="L,Lslash"
	g2="W"
	k="80" />
    <hkern g1="L,Lslash"
	g2="y,yacute,ydieresis"
	k="40" />
    <hkern g1="L,Lslash"
	g2="Y,Yacute,Ydieresis"
	k="80" />
    <hkern g1="L,Lslash"
	g2="quoteright"
	k="60" />
    <hkern g1="P"
	g2="A,AE,Aacute,Acircumflex,Adieresis,Agrave,Aring,Atilde"
	k="80" />
    <hkern g1="P"
	g2="comma"
	k="140" />
    <hkern g1="P"
	g2="period"
	k="140" />
    <hkern g1="r"
	g2="v"
	k="-40" />
    <hkern g1="r"
	g2="w"
	k="-40" />
    <hkern g1="r"
	g2="y,yacute,ydieresis"
	k="-40" />
    <hkern g1="r"
	g2="comma"
	k="60" />
    <hkern g1="r"
	g2="period"
	k="60" />
    <hkern g1="r"
	g2="f,fi,fl,germandbls"
	k="-20" />
    <hkern g1="r"
	g2="m"
	k="-8" />
    <hkern g1="r"
	g2="n,ntilde"
	k="-8" />
    <hkern g1="r"
	g2="t"
	k="-20" />
    <hkern g1="r"
	g2="x"
	k="-40" />
    <hkern g1="r"
	g2="hyphen"
	k="20" />
    <hkern g1="R"
	g2="T"
	k="20" />
    <hkern g1="R"
	g2="V"
	k="20" />
    <hkern g1="R"
	g2="W"
	k="20" />
    <hkern g1="R"
	g2="y,yacute,ydieresis"
	k="20" />
    <hkern g1="R"
	g2="Y,Yacute,Ydieresis"
	k="20" />
    <hkern g1="T"
	g2="w"
	k="60" />
    <hkern g1="T"
	g2="y,yacute,ydieresis"
	k="60" />
    <hkern g1="T"
	g2="A,AE,Aacute,Acircumflex,Adieresis,Agrave,Aring,Atilde"
	k="80" />
    <hkern g1="T"
	g2="comma"
	k="100" />
    <hkern g1="T"
	g2="period"
	k="100" />
    <hkern g1="T"
	g2="hyphen"
	k="60" />
    <hkern g1="T"
	g2="a,ae,aacute,acircumflex,adieresis,agrave,aring,atilde"
	k="100" />
    <hkern g1="T"
	g2="c,ccedilla"
	k="100" />
    <hkern g1="T"
	g2="e,eacute,ecircumflex,edieresis,egrave"
	k="100" />
    <hkern g1="T"
	g2="i,iacute,icircumflex,idieresis,igrave"
	k="30" />
    <hkern g1="T"
	g2="o,oslash,oe,oacute,ocircumflex,odieresis,ograve,otilde"
	k="100" />
    <hkern g1="T"
	g2="r"
	k="40" />
    <hkern g1="T"
	g2="s,scaron"
	k="75" />
    <hkern g1="T"
	g2="u,uacute,ucircumflex,udieresis,ugrave"
	k="60" />
    <hkern g1="T"
	g2="colon"
	k="100" />
    <hkern g1="T"
	g2="semicolon"
	k="100" />
    <hkern g1="v"
	g2="comma"
	k="80" />
    <hkern g1="v"
	g2="period"
	k="80" />
    <hkern g1="V"
	g2="y,yacute,ydieresis"
	k="30" />
    <hkern g1="V"
	g2="A,AE,Aacute,Acircumflex,Adieresis,Agrave,Aring,Atilde"
	k="100" />
    <hkern g1="V"
	g2="comma"
	k="100" />
    <hkern g1="V"
	g2="period"
	k="100" />
    <hkern g1="V"
	g2="hyphen"
	k="60" />
    <hkern g1="V"
	g2="a,ae,aacute,acircumflex,adieresis,agrave,aring,atilde"
	k="80" />
    <hkern g1="V"
	g2="e,eacute,ecircumflex,edieresis,egrave"
	k="80" />
    <hkern g1="V"
	g2="i,iacute,icircumflex,idieresis,igrave"
	k="20" />
    <hkern g1="V"
	g2="o,oslash,oe,oacute,ocircumflex,odieresis,ograve,otilde"
	k="80" />
    <hkern g1="V"
	g2="r"
	k="40" />
    <hkern g1="V"
	g2="u,uacute,ucircumflex,udieresis,ugrave"
	k="40" />
    <hkern g1="V"
	g2="colon"
	k="40" />
    <hkern g1="V"
	g2="semicolon"
	k="40" />
    <hkern g1="w"
	g2="comma"
	k="60" />
    <hkern g1="w"
	g2="period"
	k="60" />
    <hkern g1="W"
	g2="A,AE,Aacute,Acircumflex,Adieresis,Agrave,Aring,Atilde"
	k="100" />
    <hkern g1="W"
	g2="comma"
	k="100" />
    <hkern g1="W"
	g2="period"
	k="100" />
    <hkern g1="W"
	g2="hyphen"
	k="20" />
    <hkern g1="W"
	g2="a,ae,aacute,acircumflex,adieresis,agrave,aring,atilde"
	k="80" />
    <hkern g1="W"
	g2="e,eacute,ecircumflex,edieresis,egrave"
	k="100" />
    <hkern g1="W"
	g2="i,iacute,icircumflex,idieresis,igrave"
	k="20" />
    <hkern g1="W"
	g2="o,oslash,oe,oacute,ocircumflex,odieresis,ograve,otilde"
	k="100" />
    <hkern g1="W"
	g2="r"
	k="40" />
    <hkern g1="W"
	g2="u,uacute,ucircumflex,udieresis,ugrave"
	k="40" />
    <hkern g1="W"
	g2="colon"
	k="70" />
    <hkern g1="W"
	g2="semicolon"
	k="70" />
    <hkern g1="y,yacute,ydieresis"
	g2="comma"
	k="80" />
    <hkern g1="y,yacute,ydieresis"
	g2="period"
	k="80" />
    <hkern g1="Y,Yacute,Ydieresis"
	g2="v"
	k="60" />
    <hkern g1="Y,Yacute,Ydieresis"
	g2="A,AE,Aacute,Acircumflex,Adieresis,Agrave,Aring,Atilde"
	k="80" />
    <hkern g1="Y,Yacute,Ydieresis"
	g2="comma"
	k="120" />
    <hkern g1="Y,Yacute,Ydieresis"
	g2="period"
	k="120" />
    <hkern g1="Y,Yacute,Ydieresis"
	g2="hyphen"
	k="100" />
    <hkern g1="Y,Yacute,Ydieresis"
	g2="a,ae,aacute,acircumflex,adieresis,agrave,aring,atilde"
	k="100" />
    <hkern g1="Y,Yacute,Ydieresis"
	g2="e,eacute,ecircumflex,edieresis,egrave"
	k="100" />
    <hkern g1="Y,Yacute,Ydieresis"
	g2="i,iacute,icircumflex,idieresis,igrave"
	k="40" />
    <hkern g1="Y,Yacute,Ydieresis"
	g2="o,oslash,oe,oacute,ocircumflex,odieresis,ograve,otilde"
	k="100" />
    <hkern g1="Y,Yacute,Ydieresis"
	g2="u,uacute,ucircumflex,udieresis,ugrave"
	k="80" />
    <hkern g1="Y,Yacute,Ydieresis"
	g2="colon"
	k="80" />
    <hkern g1="Y,Yacute,Ydieresis"
	g2="semicolon"
	k="80" />
    <hkern g1="Y,Yacute,Ydieresis"
	g2="p"
	k="80" />
    <hkern g1="Y,Yacute,Ydieresis"
	g2="q"
	k="100" />
    <hkern g1="quoteright"
	g2="t"
	k="20" />
    <hkern g1="quoteright"
	g2="s,scaron"
	k="50" />
  </font>
</defs></svg>
