<svg xmlns="http://www.w3.org/2000/svg" width="353.621" height="90" viewBox="0 0 353.621 90">
  <path id="Arrow" d="M557.281-75.466H233.728v90H557.281l30.068-45Z" transform="translate(-233.728 75.466)" fill="#034992"/>
</svg>
