<svg id="Component_80_1" data-name="Component 80 – 1" xmlns="http://www.w3.org/2000/svg" width="32" height="32" viewBox="0 0 32 32">
  <g id="Group_1196" data-name="Group 1196" transform="translate(-608 -3675)">
    <circle id="Oval" cx="16" cy="16" r="16" transform="translate(608 3675)" fill="#034993"/>
    <path id="icon_navigation_chevron_right_24px" data-name="icon/navigation/chevron_right_24px" d="M.292.294a1,1,0,0,0,0,1.41l3.88,3.88L.292,9.464a1,1,0,0,0,1.41,1.41l4.59-4.59a1,1,0,0,0,0-1.41L1.7.284A1,1,0,0,0,.292.294Z" transform="translate(621 3685)" fill="#fff"/>
  </g>
</svg>
